<?xml version="1.0" standalone="no"?><!DOCTYPE svg PUBLIC "-//W3C//DTD SVG 1.0//EN" "http://www.w3.org/TR/2001/REC-SVG-20010904/DTD/svg10.dtd"><svg xmlns="http://www.w3.org/2000/svg" width="100%" height="100%">
<defs>
<font id="VolvoNovumWebCy-SemiLight" horiz-adv-x="589"><font-face
    font-family="Volvo Novum Web Cy SemiLight"
    units-per-em="1000"
    panose-1="2 11 4 3 4 5 2 6 2 4"
    ascent="980"
    descent="-220"
    alphabetic="0" />
<missing-glyph horiz-adv-x="1079"/>
<glyph unicode="" glyph-name="nonmarkingreturn" horiz-adv-x="255"/>
<glyph unicode=" " glyph-name="space" horiz-adv-x="254"/>
<glyph unicode="A" glyph-name="A" horiz-adv-x="643" d="M317 610q-10-43-63-187L191 249H447L382 426q-52 139-64 184h-1Zm44 72L625 0H540L470 189H169L100 0H18L282 682h79Z"/>
<glyph unicode="a" glyph-name="a" horiz-adv-x="516" d="M50 129q0 41 18 70t56.5 49 99 29.5T369 287v36q0 53-29 81t-84 28q-47 0-84-21t-67-65L58 387q38 51 88.5 77.5T259 491q88 0 134-42.5T439 326V236q0-58 0.5-102T442 0H374l-2 71h-1Q344 31 302 9.5T212-12Q139-12 94.5 26T50 129ZM369 232q-69 0-115.5-6t-75-18T137 177.5 124 131q0-41 27-63t76-22q40 0 72.5 20t51 55.5T369 197v35h0Z"/>
<glyph unicode="B" glyph-name="B" horiz-adv-x="706" d="M110 682q32 0 100.5 0.5T328 683q112 0 165.5-14T581 621q44-44 44-109 0-58-28.5-98T509 352q67-14 102-56.5T646 188q0-67-31.5-108.5T520 18.5 350-1Q224-1 110 0V682Zm75-305H352q74 0 108 9.5T517 419q15 15 23 36t8 49q0 45-30 74-23 23-65 32t-129 9q-93 0-139-1V377Zm0-313q59-1 172-1 80 0 124 12.5T546.5 115 568 186q0 45-20 74t-62.5 42T349 315H185V64Z"/>
<glyph unicode="b" glyph-name="b" horiz-adv-x="580" d="M152 229q0-53 19-94.5T224.5 70 305 47q47 0 81 23.5t52 67T456 240q0 57-19.5 101T382 408t-81 23q-44 0-78.5-21.5t-52.5-63T152 250V229ZM84 711h70V501q0-60-4-94h1q24 40 65 62t97 22q65 0 114.5-30.5t76-87.5T530 242q0-76-26.5-134t-77-89T310-12q-52 0-92.5 21T151 69h-1L146 0H77q3 58 5 111.5T84 238V711Z"/>
<glyph unicode="C" glyph-name="C" horiz-adv-x="690" d="M654 170Q621 80 551 33T381-14q-92 0-164 43.5t-111.5 124T66 340t40 186T220 651t160 45q90 0 160-45T644 525l-66-30q-26 64-79 99.5T378 630q-67 0-120.5-35.5t-83-101T145 341q0-88 30-153.5t84-100T383 53q76 0 128 35.5T588 191l66-21Z"/>
<glyph unicode="c" glyph-name="c" horiz-adv-x="515" d="M473 122Q441 52 391 20T269-12q-68 0-118 31T75 106.5 49 237q0 77 26.5 134T152 459.5 267 491q70 0 119-31.5T466 364l-63-33q-21 51-55 75.5T266 431q-43 0-75.5-23T141 341.5 124 239q0-57 17.5-100.5t51-67T271 48q51 0 85.5 24T414 148l59-26Z"/>
<glyph unicode="D" glyph-name="D" horiz-adv-x="726" d="M110 681q68 1 196 1 97 0 157-20t106-66q45-45 68-108.5T660 343 636 195.5 568 85Q523 40 463 20T306 0Q208 1 110 1V681ZM185 69q59-3 123-3 85 0 126.5 13.5T508 125q37 36 55 90t18 125q0 67-19.5 123T506 554q-35 35-78 49T303 617q-84 0-118-1V69Z"/>
<glyph unicode="d" glyph-name="d" horiz-adv-x="580" d="M431 0l-2 72h-1Q405 30 363.5 9T267-12q-67 0-116 30.5T75.5 106 49 236q0 77 27 134.5t77 89T270 491q51 0 91-20.5T427 412h1q-2 34-2 89V711h70V237q0-89 0.5-138T499 0H431Zm-3 249q0 54-19.5 96T354 409t-79 22q-47 0-81.5-23t-52-67T124 238q0-56 18.5-99.5T196 71t83-24q45 0 79 22.5T410 133t18 96v20Z"/>
<glyph unicode="E" glyph-name="E" horiz-adv-x="645" d="M110 682H563V618H185V380H516V318H185V65H580V0H110V682Z"/>
<glyph unicode="e" glyph-name="e" horiz-adv-x="529" d="M407 281q0 42-17.5 77t-49 54.5T269 432t-70.5-18-49-52T126 281H407ZM279-12q-70 0-122 30T77 105 49 238q0 75 27.5 133t78 89T272 491q64 0 111-28t73-79 26-108q0-31-4-51H124q1-53 21-93.5T201 69t81-22q51 0 88 19.5T436 129l47-39q-37-53-86-77.5T279-12Z"/>
<glyph unicode="F" glyph-name="F" horiz-adv-x="598" d="M110 682H550V617H185V377H504V315H185V0H110V682Z"/>
<glyph unicode="f" glyph-name="f" horiz-adv-x="312" d="M111 421H8v57H111v98q0 46 14.5 77.5t43 47T239 716q21 0 45-4.5T323 701V640q-17 7-40 11.5T242 656q-21 0-34.5-8t-20-25.5T181 576V478H309V421H181V0H111V421Z"/>
<glyph unicode="&#xfb01;" glyph-name="fi" horiz-adv-x="567" d="M111 421H8v57H111v98q0 46 14.5 77.5t43 47T239 716q21 0 45-4.5T323 701V640q-17 7-40 11.5T242 656q-21 0-34.5-8t-20-25.5T181 576V478H309V421H181V0H111V421ZM412 563V684h72V563H412h0ZM413 0V478h70V0H413Z"/>
<glyph unicode="&#xfb02;" glyph-name="fl" horiz-adv-x="567" d="M413 711h70V0H413V711ZM111 421H8v57H111v98q0 46 14.5 77.5t43 47T239 716q21 0 45-4.5T323 701V640q-17 7-40 11.5T242 656q-21 0-34.5-8t-20-25.5T181 576V478H309V421H181V0H111V421Z"/>
<glyph unicode="G" glyph-name="G" horiz-adv-x="755" d="M588 0V110h-1q-30-58-86-91T373-14q-89 0-159.5 44t-109 124.5T66 340q0 102 39.5 183.5t112 127T381 696q93 0 159-38T651 539l-61-41q-36 68-88.5 100.5T374 631q-68 0-120-37T173.5 491 145 341q0-88 29.5-154T257 86 378 51q59 0 105.5 30.5t72 83.5T581 281v22H381v61H657V0H588Z"/>
<glyph unicode="g" glyph-name="g" horiz-adv-x="581" d="M429 249q0 53-19.5 95t-54 64.5T276 431q-48 0-82-23t-51.5-66.5T125 239q0-56 18.5-99.5T197 72t83-24q45 0 79 22.5T411 134t18 96v19Zm76 229q-4-36-5.5-95T498 241V-16q0-98-53.5-149.5T288-217q-73 0-127 28.5T67-100l54 41q31-50 73.5-74T290-157q67 0 102.5 35.5T428-21q0 15 0.5 45.5T430 71h-2q-23-39-64-60.5T268-11q-67 0-116 30.5t-75.5 87T50 237q0 76 27 133.5t77 89T271 491q51 0 91.5-21.5T430 409h1l4 69h70Z"/>
<glyph unicode="H" glyph-name="H" horiz-adv-x="754" d="M110 682h75V387H569V682h75V0H569V320H185V0H110V682Z"/>
<glyph unicode="h" glyph-name="h" horiz-adv-x="560" d="M84 711h70V501q0-58-3-94h1q24 40 64 62t92 22q56 0 95-21.5t59-64T482 300V0H412V272q0 44-3.5 65T396 376q-13 27-39 41t-62 14q-27 0-51.5-9.5T203 396q-26-26-37.5-64.5T154 228V0H84V711Z"/>
<glyph unicode="I" glyph-name="I" horiz-adv-x="295" d="M110 682h75V0H110V682Z"/>
<glyph unicode="i" glyph-name="i" horiz-adv-x="238" d="M83 563V684h72V563H83h0ZM84 0V478h70V0H84Z"/>
<glyph unicode="J" glyph-name="J" horiz-adv-x="530" d="M426 682V207q0-106-55-163.5T224-14q-40 0-76 11T84 33 37.5 99.5 14 203l75 15q7-87 38-126.5T226 52q61 0 93 38.5T351 208V682h75Z"/>
<glyph unicode="j" glyph-name="j" horiz-adv-x="248" d="M93 563V684h72V563H93Zm71-85V-31q0-68-12-107.5t-38.5-58T38-215q-13 0-27 1.5T-12-210v55H34q24 0 37 12.5t18 38T94-31V478h70Z"/>
<glyph unicode="K" glyph-name="K" horiz-adv-x="673" d="M652 682L385 422 671 0H579L332 370 185 227V0H110V682h75V319L552 682H652Z"/>
<glyph unicode="k" glyph-name="k" horiz-adv-x="517" d="M84 711h70V254L397 478h98L307 311 512 0H423L254 264 154 175V0H84V711Z"/>
<glyph unicode="L" glyph-name="L" horiz-adv-x="548" d="M110 682h75V65H537V0H110V682Z"/>
<glyph unicode="l" glyph-name="l" horiz-adv-x="238" d="M84 711h70V0H84V711Z"/>
<glyph unicode="M" glyph-name="M" horiz-adv-x="942" d="M110 682H231L377 338q43-101 62.5-149T471 105h1q12 36 31.5 84.5T566 338L712 682H832V0H757V240q0 111 1 217t2 162h-2q-18-45-39-95T666 399L499 0H439L270 400q-52 122-66 157t-24 62h-2q1-56 1.5-162T180 240V0H110V682Z"/>
<glyph unicode="m" glyph-name="m" horiz-adv-x="881" d="M733 0V272q0 44-4 65t-12 39q-14 27-39.5 41T617 431q-26 0-50-9.5T528 396q-26-26-38-64.5T478 228V0H408V272q0 44-3.5 65T392 376q-13 27-38.5 41T293 431q-26 0-50.5-9.5T203 396q-26-26-37.5-64.5T154 228V0H84V241q0 41 0 75t-0.5 62-1 52.5T81 478h68l2-71h1q23 40 63 62t91 22q58 0 98.5-24.5T463 394q29 49 71 73t97 24q84 0 128-48.5T803 300V0H733Z"/>
<glyph unicode="N" glyph-name="N" horiz-adv-x="762" d="M559 0L307 393q-35 55-71 111t-58 93h-2q2-58 3-166t1-195V0H110V682h99L456 301q28-44 55-86.5T584 96h1q-1 58-2 166t-1 195V682h70V0H559Z"/>
<glyph unicode="n" glyph-name="n" horiz-adv-x="560" d="M412 0V272q0 44-3.5 65T396 376q-13 27-39 41t-62 14q-27 0-51.5-9.5T203 396q-26-26-37.5-64.5T154 228V0H84V241q0 41 0 75t-0.5 62-1 52.5T81 478h68l2-71h1q23 40 63.5 62T308 491q86 0 130-48.5T482 300V0H412Z"/>
<glyph unicode="O" glyph-name="O" horiz-adv-x="778" d="M712 342q0-105-41-186.5T556 30 388-14q-96 0-169.5 44t-113 124.5T66 340t41 186.5T222 652t168 44q96 0 169.5-44t113-124.5T712 342Zm-80-1q0 87-29.5 153T518 595 389 630q-73 0-128.5-34.5T175 495 145 341q0-87 30-152.5t85-101T389 52 518 87t84.5 101T632 341Z"/>
<glyph unicode="o" glyph-name="o" horiz-adv-x="559" d="M510 240q0-74-28.5-132T401 19 278-12 155.5 18.5 76.5 106 49 238 77.5 370.5t80.5 89T281 491t122.5-31 79-88T510 240Zm-75-1q0 56-19 100t-54.5 68T279 431t-82.5-24.5-54-68.5T124 239t19-99 54.5-68T279 48q48 0 83.5 24t54 68T435 239Z"/>
<glyph unicode="P" glyph-name="P" horiz-adv-x="637" d="M110 682q127 1 253 1 87 0 145.5-23T596 591.5 625 479 594.5 366t-91-69.5T356 273q-106 0-171 1V0H110V682ZM546 478q0 49-19.5 79t-60 45T362 617q-123 0-177-1V339q55-1 175-1 64 0 105 15t61 46 20 79Z"/>
<glyph unicode="p" glyph-name="p" horiz-adv-x="580" d="M84-207V241q0 59-0.5 118T81 478h68l2-71h1q23 41 64.5 62.5T313 491q66 0 115-30.5T503.5 373 530 242q0-77-27-134.5T426 19 310-12q-51 0-91.5 20T153 67h-1q2-34 2-89V-207H84Zm68 436q0-54 19-95.5t54-64T305 47q47 0 81 23.5t52 67T456 240q0 57-19.5 101T382 408t-81 23q-45 0-79-22t-52-63-18-96V229Z"/>
<glyph unicode="Q" glyph-name="Q" horiz-adv-x="778" d="M712 342q0-74-20.5-136.5T632 96l77-76L662-27 585 50Q544 19 494 2.5T388-14q-95 0-168.5 43.5T106 153.5 66 340q0 105 41 186.5T222 652t168 44q95 0 168.5-43.5T672 528.5 712 342ZM482 247l98-99q26 38 39 86.5T632 341q0 87-29.5 152.5T518 594.5 389 630 259.5 594.5 174.5 493 145 341t29.5-152 85-101.5T389 52q86 0 146 48L435 200l47 47Z"/>
<glyph unicode="q" glyph-name="q" horiz-adv-x="581" d="M429 249q0 54-19 95.5t-54 64T276 431q-48 0-82-23t-51.5-67T125 238q0-57 19-101t54-67 82-23q45 0 79 22.5T411 133t18 96v20Zm-2-456V-22q0 60 3 93h-1Q404 30 363.5 9T268-12q-67 0-116 30.5t-75.5 87T50 236q0 77 27 135t77.5 89T271 491q51 0 91.5-21T430 409h1l3 69h70q-7-138-7-236V-207H427Z"/>
<glyph unicode="R" glyph-name="R" horiz-adv-x="691" d="M185 346q27-1 64.5-1.5T353 344q64 0 105.5 14.5t62 44.5T541 482q0 46-19.5 76T462 602.5 360 617q-77 0-111 0t-64-1V346ZM557 0L336 279H185V0H110V682q18 0 112.5 0.5T363 683q83 0 140.5-22.5t87-67T620 483q0-81-50.5-132T425 286L654 0H557Z"/>
<glyph unicode="r" glyph-name="r" horiz-adv-x="343" d="M84 0V241q0 57-0.5 101.5T81 478h68l2-96h1q29 52 71.5 80T312 490q9 0 15-1V412H311q-31 0-57-10.5T208 371q-29-29-41.5-71T154 173V0H84Z"/>
<glyph unicode="S" glyph-name="S" horiz-adv-x="655" d="M106 168q51-58 111-88T344 50q50 0 88 15.5t58 44T510 174q0 34-16 58.5t-50 42-132 42-141.5 50-64 63T86 518q0 53 28.5 93.5T195 674t118 22q70 0 129.5-24T557 598l-46-55q-44 46-93 67.5T311 632q-46 0-80-13.5T180 580t-17-58q0-32 15.5-55.5t48.5-41T358 384t142.5-50T566 269.5 587 178q0-55-31-98.5T468.5 11 343-14q-83 0-153.5 32T60 114l46 54Z"/>
<glyph unicode="s" glyph-name="s" horiz-adv-x="487" d="M87 123q36-37 79.5-56.5T254 47q50 0 78.5 20.5T361 125q0 21-10.5 36.5t-33 26.5T227 215t-99.5 34.5T81 295.5 66 361q0 39 21 68.5T146.5 475 233 491q51 0 97.5-17.5T415 423l-41-49q-30 29-66 43.5T232 432q-29 0-50.5-8t-33-23.5T137 364t11-36.5 33-26T270.5 275 370 240.5 417.5 194 433 127q0-41-22.5-72.5t-64-49T253-12Q194-12 142 9T47 72l40 51Z"/>
<glyph unicode="T" glyph-name="T" horiz-adv-x="533" d="M229 616H-8v66H540V616H304V0H229V616Z"/>
<glyph unicode="t" glyph-name="t" horiz-adv-x="346" d="M9 421v57H109V645l70 19V478H322V421H179V188q0-51 1.5-72.5t5-32.5T198 63q8-8 18.5-11T243 49q21 0 43 4.5T322 65V5Q306-3 281-7.5T232-12q-45 0-72 16T121 52t-12 84V421H9Z"/>
<glyph unicode="U" glyph-name="U" horiz-adv-x="730" d="M178 258q0-68 22-114t63.5-69T366 52 469.5 75.5t64 69.5T555 258V682h71V255q0-84-30.5-145t-89-92.5T364-14q-85 0-143.5 31t-88 90.5T103 249V682h75V258Z"/>
<glyph unicode="u" glyph-name="u" horiz-adv-x="554" d="M405 0l-2 72h-1Q379 31 339 9.5T249-12q-56 0-94.5 22t-58 64.5T77 178V478h70V206q0-44 4-64.5T164 102q13-26 38-40.5T260 47q27 0 51.5 9.5T351 82q26 26 37.5 64.5T400 250V478h70V236q0-62 0.5-109T473 0H405Z"/>
<glyph unicode="V" glyph-name="V" horiz-adv-x="631" d="M278 0L16 682h85L235 318q15-41 43.5-119.5T318 86h1q3 8 25.5 73T401 318L534 682h81L353 0H278Z"/>
<glyph unicode="v" glyph-name="v" horiz-adv-x="487" d="M210 0L13 478H94l81-202q15-40 34.5-93.5T246 79h1q10 34 31.5 93T317 276l80 202h77L277 0H210Z"/>
<glyph unicode="W" glyph-name="W" horiz-adv-x="1032" d="M249 0L35 682h84l94-320q9-30 39.5-129T296 87h1q10 34 28 92.5T382 362L483 682h67L655 362q36-110 56-174T743 87h1q11 39 39.5 136.5T823 361l94 321h80L783 0H698L550 448q-10 33-17 57t-17 65h-2q-5-19-12.5-45.5T478 448L334 0H249Z"/>
<glyph unicode="w" glyph-name="w" horiz-adv-x="818" d="M548 0L461 226q-13 34-27.5 75T405 382h-2q-12-44-17-57.5T351 226L269 0H206L22 478h81l86-238q11-30 28-81.5T240 90h1q10 34 23 72.5T291 240l86 238h60l86-229q5-12 24.5-64T582 90h1q16 49 29 86.5T637 248l79 230h79L611 0H548Z"/>
<glyph unicode="X" glyph-name="X" horiz-adv-x="591" d="M250 359L32 682h92L297 419 473 682h86L342 364 587 0H496L295 304 91 0H4L250 359Z"/>
<glyph unicode="x" glyph-name="x" horiz-adv-x="465" d="M10 0L190 252 30 478h87L235 303 353 478h81L274 253 455 0H367L230 203 92 0H10Z"/>
<glyph unicode="Y" glyph-name="Y" horiz-adv-x="604" d="M264 0V292L0 682H91L304 362 517 682h87L340 292V0H264Z"/>
<glyph unicode="y" glyph-name="y" horiz-adv-x="487" d="M115-207L213 0h-3L13 478H94l81-202q32-81 71-197h1q29 93 70 197l80 202h77L192-207H115Z"/>
<glyph unicode="Z" glyph-name="Z" horiz-adv-x="628" d="M582 0H46V68L479 617q-48-1-131.5-1.5T223 615H61v67H567V615L135 67q50 0 129 0.5T380 68H582V0Z"/>
<glyph unicode="z" glyph-name="z" horiz-adv-x="489" d="M442 0H47V61L346 420q-24 0-73-0.5T197 419H58v59H428V419L128 60q27 0 83.5 0.5T301 61H442V0Z"/>
<glyph unicode="&#x394;" glyph-name="Delta" horiz-adv-x="641" d="M119 65H520L416 338q-86 227-98 272h-1q-14-53-95-270L119 65ZM604 0H37V58L283 682h77L604 61V0Z"/>
<glyph unicode="&#x3bc;" glyph-name="mu" horiz-adv-x="561" d="M84-207V478h70V206q0-44 3.5-64.5T170 102q14-26 38.5-40.5T267 47q26 0 50.5 9.5T358 82q26 26 37.5 64.5T407 250V478h70V236q0-62 0.5-109T480 0H411l-1 72h-1Q386 31 346 9.5T257-12q-74 0-107 45h-1q2-45 2-61l4-179H84Z"/>
<glyph unicode="&#x3a9;" glyph-name="Omega" horiz-adv-x="779" d="M67 0V65H256v2q-94 52-139 129.5T72 379q0 91 42 164T228.5 656 391 696q92 0 164-40T667 543.5 707 379q0-100-47-179.5T523 67V65H712V0H457V87q90 54 130.5 121.5T628 372q0 77-29 136t-83.5 90.5T390 630q-74 0-128-31.5t-82-90T152 372q0-96 40.5-163T322 87V0H67Z"/>
<glyph unicode="&#x410;" glyph-name="uni0410" horiz-adv-x="643" d="M317 610q-10-43-63-187L191 249H447L382 426q-52 139-64 184h-1Zm44 72L625 0H540L470 189H169L100 0H18L282 682h79Z"/>
<glyph unicode="&#x430;" glyph-name="uni0430" horiz-adv-x="516" d="M50 129q0 41 18 70t56.5 49 99 29.5T369 287v36q0 53-29 81t-84 28q-47 0-84-21t-67-65L58 387q38 51 88.5 77.5T259 491q88 0 134-42.5T439 326V236q0-58 0.5-102T442 0H374l-2 71h-1Q344 31 302 9.5T212-12Q139-12 94.5 26T50 129ZM369 232q-69 0-115.5-6t-75-18T137 177.5 124 131q0-41 27-63t76-22q40 0 72.5 20t51 55.5T369 197v35h0Z"/>
<glyph unicode="&#x4d2;" glyph-name="uni04D2" horiz-adv-x="643" d="M317 610q-10-43-63-187L191 249H447L382 426q-52 139-64 184h-1Zm44 72L625 0H540L470 189H169L100 0H18L282 682h79Zm33 79V873h75V761H394Zm-223 0V873h75V761H171Z"/>
<glyph unicode="&#x4d3;" glyph-name="uni04D3" horiz-adv-x="516" d="M50 129q0 41 18 70t56.5 49 99 29.5T369 287v36q0 53-29 81t-84 28q-47 0-84-21t-67-65L58 387q38 51 88.5 77.5T259 491q88 0 134-42.5T439 326V236q0-58 0.5-102T442 0H374l-2 71h-1Q344 31 302 9.5T212-12Q139-12 94.5 26T50 129ZM369 232q-69 0-115.5-6t-75-18T137 177.5 124 131q0-41 27-63t76-22q40 0 72.5 20t51 55.5T369 197v35h0ZM314 567V680h71V567H314Zm-184 0V680h71V567H130Z"/>
<glyph unicode="&#x4d0;" glyph-name="uni04D0" horiz-adv-x="643" d="M317 610q-10-43-63-187L191 249H447L382 426q-52 139-64 184h-1Zm44 72L625 0H540L470 189H169L100 0H18L282 682h79ZM475 884q-6-66-47.5-102.5T317 745 207.5 781.5 161 884h69q5-42 27.5-65.5T318 795t60 24 28 65h69Z"/>
<glyph unicode="&#x4d1;" glyph-name="uni04D1" horiz-adv-x="516" d="M50 129q0 41 18 70t56.5 49 99 29.5T369 287v36q0 53-29 81t-84 28q-47 0-84-21t-67-65L58 387q38 51 88.5 77.5T259 491q88 0 134-42.5T439 326V236q0-58 0.5-102T442 0H374l-2 71h-1Q344 31 302 9.5T212-12Q139-12 94.5 26T50 129ZM369 232q-69 0-115.5-6t-75-18T137 177.5 124 131q0-41 27-63t76-22q40 0 72.5 20t51 55.5T369 197v35h0Zm30 457q-8-68-44.5-101.5T253 554q-66 0-101 33T109 689h66q10-46 28.5-66.5T254 602q34 0 54.5 23T333 689h66Z"/>
<glyph unicode="&#x4d4;" glyph-name="uni04D4" horiz-adv-x="969" d="M190 248H456V618H375L190 248ZM887 682V618H531V380H840V318H531V65H904V0H456V186H160L67 0H-17L331 682H887Z"/>
<glyph unicode="&#x4d5;" glyph-name="uni04D5" horiz-adv-x="844" d="M227 46q40 0 72 19.5t51 55T369 197v35q-69 0-115.5-6t-75-18T137 177.5 124 131q0-41 27-63t76-22ZM722 281q0 43-18 78.5t-49 54T585 432q-40 0-70.5-17.5T465 363t-24-82H722ZM213-12Q140-12 95 26T50 129q0 41 18 70t56.5 49 99 29.5T369 287v36q-1 54-29.5 81.5T256 432q-47 0-84-21t-67-65L58 387q38 51 88.5 77.5T259 491t101.5-21T418 408q28 40 71 61.5T588 491q63 0 109.5-27.5t73.5-79T798 276q0-31-4-51H439q2-80 45-129T597 47q51 0 88 19.5T751 129l48-39q-39-54-88-78T594-12 477.5 16.5 400 102q-29-59-75-86.5T213-12Z"/>
<glyph unicode="&#x411;" glyph-name="uni0411" horiz-adv-x="675" d="M185 65q59-1 157-1 74 0 119.5 14t68 45T552 203q0 50-22.5 80.5t-67.5 44T342 341q-102 0-157-2V65ZM110 682H580V617H185V404q60 2 162 2 100 0 162-22t92-66.5T631 205q0-69-33.5-115t-99-68.5T338-1Q218-1 110 0V682Z"/>
<glyph unicode="&#x431;" glyph-name="uni0431" horiz-adv-x="567" d="M492 657q-100-5-179-16-51-7-82-21.5t-51.5-41-34.5-71T119 390h2q25 48 69.5 72.5T295 487q51 0 92.5-17.5t71-51 44.5-79T518 239 501 137.5 452.5 57 378 5.5 285-12q-56 0-98.5 19.5t-72 58T70.5 162 56 295q0 108 13.5 181.5t43 121.5 77 74.5T308 708q78 10 184 17V657ZM130 232q0-42 11.5-76T174 98t49.5-37T286 48q35 0 64.5 14t50 40T432 162.5 443 237q0 41-11 76t-32 60.5T350 413t-64 14q-34 0-63-12.5T173 378t-32-58-11-76V232Z"/>
<glyph unicode="&#x412;" glyph-name="uni0412" horiz-adv-x="706" d="M110 682q32 0 100.5 0.5T328 683q112 0 165.5-14T581 621q44-44 44-109 0-58-28.5-98T509 352q67-14 102-56.5T646 188q0-67-31.5-108.5T520 18.5 350-1Q224-1 110 0V682Zm75-305H352q74 0 108 9.5T517 419q15 15 23 36t8 49q0 45-30 74-23 23-65 32t-129 9q-93 0-139-1V377Zm0-313q59-1 172-1 80 0 124 12.5T546.5 115 568 186q0 45-20 74t-62.5 42T349 315H185V64Z"/>
<glyph unicode="&#x432;" glyph-name="uni0432" horiz-adv-x="547" d="M154 59q54-7 109-7 54 0 87.5 9T400 88t16 45q0 28-16.5 46t-50 27T263 215H154V59Zm0 212H261q49 0 79.5 8t45 25T400 349q0 27-16.5 44.5T336 419t-78 8q-61-1-104-6V271ZM84 475q88 10 175 10 73 0 120.5-14t72-43T476 352q0-38-24-66t-65-38v-2q48-8 76-37.5T491 134q0-47-26.5-78t-78-47T261-7Q175-7 84 4V475Z"/>
<glyph unicode="&#x413;" glyph-name="uni0413" horiz-adv-x="525" d="M110 682H520V616H185V0H110V682Z"/>
<glyph unicode="&#x433;" glyph-name="uni0433" horiz-adv-x="404" d="M84 478H395V421H154V0H84V478Z"/>
<glyph unicode="&#x403;" glyph-name="uni0403" horiz-adv-x="525" d="M110 682H520V616H185V0H110V682ZM337 881H443L316 749H244l93 132Z"/>
<glyph unicode="&#x453;" glyph-name="uni0453" horiz-adv-x="404" d="M84 478H395V421H154V0H84V478ZM275 692h98L257 551H191l84 141Z"/>
<glyph unicode="&#x490;" glyph-name="uni0490" horiz-adv-x="525" d="M110 682H454V837h66V616H185V0H110V682Z"/>
<glyph unicode="&#x491;" glyph-name="uni0491" horiz-adv-x="404" d="M84 478H332V621h63V421H154V0H84V478Z"/>
<glyph unicode="&#x492;" glyph-name="uni0492" horiz-adv-x="535" d="M120 0V316H9v58H120V682H530V616H195V374H360V316H195V0H120Z"/>
<glyph unicode="&#x493;" glyph-name="uni0493" horiz-adv-x="404" d="M84 0V210H0v54H84V478H395V421H154V264H279V210H154V0H84Z"/>
<glyph unicode="&#x494;" glyph-name="uni0494" horiz-adv-x="643" d="M110 0V682H520V617H185V404q103 2 151 2 84 0 142-29t87-86 29-140q0-80-27-139.5T488.5-81 370-114q-44 0-74 9v65q37-8 71-8 47 0 80.5 23.5t50.5 67T515 146q0 68-20.5 110.5T433 320 330 341q-50 0-145-2V0H110Z"/>
<glyph unicode="&#x495;" glyph-name="uni0495" horiz-adv-x="546" d="M84 0V478H449V421H154V302q0-46-3-95h1q24 37 63.5 56.5T301 283q69 0 116-28t72-83.5T514 35q0-73-26.5-130.5t-75.5-89T297-216q-26 0-46 4v63q19-7 45-7 44 0 76.5 23.5T422-65t17 99q0 61-16.5 104t-49 64.5T297 224t-76-23-49.5-67T154 34V0H84Z"/>
<glyph unicode="&#x414;" glyph-name="uni0414" horiz-adv-x="755" d="M675-156V0H75V-156H10V65H93q30 52 47.5 106.5t26 122.5T177 461l4 221H619V65H740V-156H675ZM544 617H253l-3-160q-2-99-9.5-167t-23-121.5T176 65H544V617Z"/>
<glyph unicode="&#x434;" glyph-name="uni0434" horiz-adv-x="608" d="M530-143V0H68V-143H5V58H72q41 57 59 119.5T152 331l5 147H495V58h98V-143H530ZM425 421H223l-3-94q-4-92-21-156.5T149 58H425V421Z"/>
<glyph unicode="&#x415;" glyph-name="uni0415" horiz-adv-x="645" d="M110 682H563V618H185V380H516V318H185V65H580V0H110V682Z"/>
<glyph unicode="&#x435;" glyph-name="uni0435" horiz-adv-x="529" d="M407 281q0 42-17.5 77t-49 54.5T269 432t-70.5-18-49-52T126 281H407ZM279-12q-70 0-122 30T77 105 49 238q0 75 27.5 133t78 89T272 491q64 0 111-28t73-79 26-108q0-31-4-51H124q1-53 21-93.5T201 69t81-22q51 0 88 19.5T436 129l47-39q-37-53-86-77.5T279-12Z"/>
<glyph unicode="&#x400;" glyph-name="uni0400" horiz-adv-x="645" d="M110 682H563V618H185V380H516V318H185V65H580V0H110V682Zm294 67H331L205 881H311l93-132Z"/>
<glyph unicode="&#x450;" glyph-name="uni0450" horiz-adv-x="529" d="M407 281q0 42-17.5 77t-49 54.5T269 432t-70.5-18-49-52T126 281H407ZM279-12q-70 0-122 30T77 105 49 238q0 75 27.5 133t78 89T272 491q64 0 111-28t73-79 26-108q0-31-4-51H124q1-53 21-93.5T201 69t81-22q51 0 88 19.5T436 129l47-39q-37-53-86-77.5T279-12Zm28 563H240L123 692h99l85-141Z"/>
<glyph unicode="&#x401;" glyph-name="uni0401" horiz-adv-x="645" d="M110 682H563V618H185V380H516V318H185V65H580V0H110V682Zm301 79V873h75V761H411Zm-223 0V873h75V761H188Z"/>
<glyph unicode="&#x451;" glyph-name="uni0451" horiz-adv-x="529" d="M407 281q0 42-17.5 77t-49 54.5T269 432t-70.5-18-49-52T126 281H407ZM279-12q-70 0-122 30T77 105 49 238q0 75 27.5 133t78 89T272 491q64 0 111-28t73-79 26-108q0-31-4-51H124q1-53 21-93.5T201 69t81-22q51 0 88 19.5T436 129l47-39q-37-53-86-77.5T279-12Zm45 579V680h71V567H324Zm-184 0V680h71V567H140Z"/>
<glyph unicode="&#x4d6;" glyph-name="uni04D6" horiz-adv-x="645" d="M110 682H563V618H185V380H516V318H185V65H580V0H110V682ZM481 884q-6-66-47.5-102.5T323 745 213.5 781.5 167 884h69q5-42 27.5-65.5T324 795t60 24 28 65h69Z"/>
<glyph unicode="&#x4d7;" glyph-name="uni04D7" horiz-adv-x="529" d="M407 281q0 42-17.5 77t-49 54.5T269 432t-70.5-18-49-52T126 281H407ZM279-12q-70 0-122 30T77 105 49 238q0 75 27.5 133t78 89T272 491q64 0 111-28t73-79 26-108q0-31-4-51H124q1-53 21-93.5T201 69t81-22q51 0 88 19.5T436 129l47-39q-37-53-86-77.5T279-12ZM409 689q-8-68-44.5-101.5T263 554q-66 0-101 33T119 689h66q10-46 28.5-66.5T264 602q34 0 54.5 23T343 689h66Z"/>
<glyph unicode="&#x4d8;" glyph-name="uni04D8" horiz-adv-x="728" d="M76 548q49 74 117.5 111T351 696q91 0 162-44.5t110-125T662 342q0-103-38.5-184.5T515.5 31 358-14q-95 0-162.5 41T92.5 148.5 57 341q0 14 1 36H581q-6 77-36.5 134.5t-81 88T349 630q-73 0-125-28.5T133 512L76 548ZM360 52q65 0 114 32t76.5 91.5T582 314H137q3-83 30-142t75.5-89.5T360 52Z"/>
<glyph unicode="&#x4d9;" glyph-name="uni04D9" horiz-adv-x="529" d="M45 388q39 52 89.5 77.5T250 491q70 0 122-30t80-87.5T480 240 452 106.5t-78.5-88T256-12q-63 0-110 27.5t-73.5 79T46 203q0 30 5 50H405q-1 54-21.5 94.5t-56 62T247 431q-50 0-87-19.5T93 349L45 388Zm77-190q0-43 17-78t48.5-54.5T259 46t71 18 49.5 52T403 198H122Z"/>
<glyph unicode="&#x416;" glyph-name="uni0416" horiz-adv-x="943" d="M847 0L601 321H510V0H435V321H340L93 0H2L281 357 16 682h91L342 386h93V682h75V386h92L838 682h89L664 360 941 0H847Z"/>
<glyph unicode="&#x436;" glyph-name="uni0436" horiz-adv-x="752" d="M660 0L480 220H411V0H341V220H273L91 0H6L217 254 23 478h87L275 276h66V478h70V276h67L644 478h85L536 256 745 0H660Z"/>
<glyph unicode="&#x4dc;" glyph-name="uni04DC" horiz-adv-x="943" d="M847 0L601 321H510V0H435V321H340L93 0H2L281 357 16 682h91L342 386h93V682h75V386h92L838 682h89L664 360 941 0H847ZM545 761V873h75V761H545Zm-223 0V873h75V761H322Z"/>
<glyph unicode="&#x4dd;" glyph-name="uni04DD" horiz-adv-x="752" d="M660 0L480 220H411V0H341V220H273L91 0H6L217 254 23 478h87L275 276h66V478h70V276h67L644 478h85L536 256 745 0H660ZM432 567V680h71V567H432Zm-184 0V680h71V567H248Z"/>
<glyph unicode="&#x4c1;" glyph-name="uni04C1" horiz-adv-x="943" d="M847 0L601 321H510V0H435V321H340L93 0H2L281 357 16 682h91L342 386h93V682h75V386h92L838 682h89L664 360 941 0H847ZM628 884q-6-66-47.5-102.5T470 745 360.5 781.5 314 884h69q5-42 27.5-65.5T471 795t60 24 28 65h69Z"/>
<glyph unicode="&#x4c2;" glyph-name="uni04C2" horiz-adv-x="752" d="M660 0L480 220H411V0H341V220H273L91 0H6L217 254 23 478h87L275 276h66V478h70V276h67L644 478h85L536 256 745 0H660ZM521 689q-8-68-44.5-101.5T375 554q-66 0-101 33T231 689h66q10-46 28.5-66.5T376 602q34 0 54.5 23T455 689h66Z"/>
<glyph unicode="&#x496;" glyph-name="uni0496" horiz-adv-x="980" d="M914-156V0H847L601 321H510V0H435V321H340L93 0H2L281 357 16 682h91L342 386h93V682h75V386h92L838 682h89L664 360 891 65h89V-156H914Z"/>
<glyph unicode="&#x497;" glyph-name="uni0497" horiz-adv-x="767" d="M705-143V0H660L480 220H411V0H341V220H273L91 0H6L217 254 23 478h87L275 276h66V478h70V276h67L644 478h85L536 256 697 58h70V-143H705Z"/>
<glyph unicode="&#x417;" glyph-name="uni0417" horiz-adv-x="639" d="M93 156q34-50 91.5-77.5T312 51q60 0 102.5 15.5t64 45T500 183q0 44-22.5 73.5t-67 44T300 315H188v62H297q89 0 135.5 32.5T479 504q0 40-20.5 69t-59 43.5T309 631q-66 0-117.5-24T100 533L49 577q49 59 115 89t147 30q75 0 131-22t86-64 30-99q0-59-33.5-101T433 352h0q70-14 108-57t38-107q0-61-33-107T452.5 10.5 311-14q-90 0-163.5 33.5T34 113l59 43Z"/>
<glyph unicode="&#x437;" glyph-name="uni0437" horiz-adv-x="500" d="M138 273h84q44 0 73.5 10T339 311.5 353 356q0 24-13.5 41T299 423t-65 9q-47 0-84-17.5T87 362L37 398q35 45 87 69t114 24q61 0 103.5-15.5t65-45.5T429 358q0-40-24-68t-68-41v-1q53-11 80-40.5T444 131q0-43-25-75.5t-71.5-50T239-12q-70 0-124.5 24T28 80l53 41q26-38 66-56.5T241 46q43 0 71.5 10t42 29T368 130q0 29-16 48.5t-48.5 29T221 217H138v56Z"/>
<glyph unicode="&#x4de;" glyph-name="uni04DE" horiz-adv-x="639" d="M93 156q34-50 91.5-77.5T312 51q60 0 102.5 15.5t64 45T500 183q0 44-22.5 73.5t-67 44T300 315H188v62H297q89 0 135.5 32.5T479 504q0 40-20.5 69t-59 43.5T309 631q-66 0-117.5-24T100 533L49 577q49 59 115 89t147 30q75 0 131-22t86-64 30-99q0-59-33.5-101T433 352h0q70-14 108-57t38-107q0-61-33-107T452.5 10.5 311-14q-90 0-163.5 33.5T34 113l59 43ZM375 761V873h75V761H375Zm-223 0V873h75V761H152Z"/>
<glyph unicode="&#x4df;" glyph-name="uni04DF" horiz-adv-x="500" d="M138 273h84q44 0 73.5 10T339 311.5 353 356q0 24-13.5 41T299 423t-65 9q-47 0-84-17.5T87 362L37 398q35 45 87 69t114 24q61 0 103.5-15.5t65-45.5T429 358q0-40-24-68t-68-41v-1q53-11 80-40.5T444 131q0-43-25-75.5t-71.5-50T239-12q-70 0-124.5 24T28 80l53 41q26-38 66-56.5T241 46q43 0 71.5 10t42 29T368 130q0 29-16 48.5t-48.5 29T221 217H138v56ZM296 567V680h71V567H296Zm-184 0V680h71V567H112Z"/>
<glyph unicode="&#x498;" glyph-name="uni0498" horiz-adv-x="639" d="M278-156V-13Q198-7 134 26.5T34 114l60 41q34-50 90.5-77T312 51q62 0 104 16t63 45 21 71q0 43-22 72.5T411.5 300 300 315H188v62H297q61 0 101.5 15T459 435.5 479 504q0 41-21 69.5t-61 43T302 631q-63 0-113-25t-89-73L49 575q47 60 111.5 90.5T305 696t136.5-22.5T528 609t30-98q0-59-33.5-101.5T433 351v-1q70-12 108-54t38-108q0-57-28-100.5T469.5 18 344-13V-156H278Z"/>
<glyph unicode="&#x499;" glyph-name="uni0499" horiz-adv-x="500" d="M206-143V-10Q147-5 101.5 18T28 80l53 41q26-38 66-56.5T241 46q43 0 71.5 10t42 29T368 130q0 29-16 48.5t-48.5 29T221 217H138v56h84q44 0 73.5 10T339 311.5 353 356q0 24-13.5 41T299 423t-65 9q-47 0-84-18T87 362L37 398q35 45 86.5 69T238 491q61 0 103.5-15.5t65-45.5T429 358q0-40-24-68t-68-41v-1q53-11 80-40.5T444 131q0-39-21-70T362.5 11.5 269-11V-143H206Z"/>
<glyph unicode="&#x418;" glyph-name="uni0418" horiz-adv-x="754" d="M569 0V571L185 0H110V682h75V111L569 682h75V0H569Z"/>
<glyph unicode="&#x438;" glyph-name="uni0438" horiz-adv-x="585" d="M431 0V399L155 0H84V478h70V97L418 478h83V0H431Z"/>
<glyph unicode="&#x419;" glyph-name="uni0419" horiz-adv-x="754" d="M569 0V571L185 0H110V682h75V111L569 682h75V0H569ZM534 884q-6-66-47.5-102.5T376 745 266.5 781.5 220 884h69q5-42 27.5-65.5T377 795t60 24 28 65h69Z"/>
<glyph unicode="&#x439;" glyph-name="uni0439" horiz-adv-x="585" d="M431 0V399L155 0H84V478h70V97L418 478h83V0H431Zm6 689q-8-68-44.5-101.5T291 554q-66 0-101 33T147 689h66q10-46 28.5-66.5T292 602q34 0 54.5 23T371 689h66Z"/>
<glyph unicode="&#x4e2;" glyph-name="uni04E2" horiz-adv-x="754" d="M569 0V571L185 0H110V682h75V111L569 682h75V0H569ZM523 781H226v62H523V781Z"/>
<glyph unicode="&#x4e3;" glyph-name="uni04E3" horiz-adv-x="585" d="M431 0V399L155 0H84V478h70V97L418 478h83V0H431Zm-5 588H158v59H426V588Z"/>
<glyph unicode="&#x40d;" glyph-name="uni040D" horiz-adv-x="754" d="M569 0V571L185 0H110V682h75V111L569 682h75V0H569ZM433 749H360L234 881H340l93-132Z"/>
<glyph unicode="&#x45d;" glyph-name="uni045D" horiz-adv-x="585" d="M431 0V399L155 0H84V478h70V97L418 478h83V0H431ZM339 551H272L155 692h99l85-141Z"/>
<glyph unicode="&#x4e4;" glyph-name="uni04E4" horiz-adv-x="754" d="M569 0V571L185 0H110V682h75V111L569 682h75V0H569ZM451 761V873h75V761H451Zm-223 0V873h75V761H228Z"/>
<glyph unicode="&#x4e5;" glyph-name="uni04E5" horiz-adv-x="585" d="M431 0V399L155 0H84V478h70V97L418 478h83V0H431ZM349 567V680h71V567H349Zm-184 0V680h71V567H165Z"/>
<glyph unicode="&#x406;" glyph-name="uni0406" horiz-adv-x="295" d="M110 682h75V0H110V682Z"/>
<glyph unicode="&#x456;" glyph-name="uni0456" horiz-adv-x="238" d="M83 563V684h72V563H83h0ZM84 0V478h70V0H84Z"/>
<glyph unicode="&#x407;" glyph-name="uni0407" horiz-adv-x="295" d="M110 682h75V0H110V682Zm111 79V873h75V761H221ZM-2 761V873H73V761H-2Z"/>
<glyph unicode="&#x457;" glyph-name="uni0457" horiz-adv-x="238" d="M84 0V478h70V0H84Zm81 567V680h70V567H165ZM3 567V680H73V567H3Z"/>
<glyph unicode="&#x4c0;" glyph-name="uni04C0" horiz-adv-x="295" d="M110 682h75V0H110V682Z"/>
<glyph unicode="&#x4cf;" glyph-name="uni04CF" horiz-adv-x="238" d="M84 711h70V0H84V711Z"/>
<glyph unicode="&#x408;" glyph-name="uni0408" horiz-adv-x="530" d="M426 682V207q0-106-55-163.5T224-14q-40 0-76 11T84 33 37.5 99.5 14 203l75 15q7-87 38-126.5T226 52q61 0 93 38.5T351 208V682h75Z"/>
<glyph unicode="&#x458;" glyph-name="uni0458" horiz-adv-x="248" d="M93 563V684h72V563H93Zm71-85V-31q0-68-12-107.5t-38.5-58T38-215q-13 0-27 1.5T-12-210v55H34q24 0 37 12.5t18 38T94-31V478h70Z"/>
<glyph unicode="&#x41a;" glyph-name="uni041A" horiz-adv-x="668" d="M567 0L279 321H185V0H110V682h75V386h94L559 682h94L343 358 666 0H567Z"/>
<glyph unicode="&#x43a;" glyph-name="uni043A" horiz-adv-x="509" d="M414 0L223 220H154V0H84V478h70V276h66L406 478h88L281 253 503 0H414Z"/>
<glyph unicode="&#x40c;" glyph-name="uni040C" horiz-adv-x="668" d="M567 0L279 321H185V0H110V682h75V386h94L559 682h94L343 358 666 0H567ZM389 881H495L368 749H296l93 132Z"/>
<glyph unicode="&#x45c;" glyph-name="uni045C" horiz-adv-x="509" d="M414 0L223 220H154V0H84V478h70V276h66L406 478h88L281 253 503 0H414ZM304 692h98L286 551H220l84 141Z"/>
<glyph unicode="&#x4a0;" glyph-name="uni04A0" horiz-adv-x="767" d="M666 0L378 321H284V0H209V618H-8v64H284V386h94L658 682h94L442 358 765 0H666Z"/>
<glyph unicode="&#x4a1;" glyph-name="uni04A1" horiz-adv-x="585" d="M490 0L298 219H229V0H159V421H19v57H229V276h67L482 478h88L356 253 579 0H490Z"/>
<glyph unicode="&#x49a;" glyph-name="uni049A" horiz-adv-x="690" d="M625-156V0H567L279 321H185V0H110V682h75V386h94L559 682h94L343 358 607 65h83V-156H625Z"/>
<glyph unicode="&#x49b;" glyph-name="uni049B" horiz-adv-x="518" d="M456-143V0H414L223 219H154V0H84V478h70V276h66L406 478h88L281 253 452 58h66V-143H456Z"/>
<glyph unicode="&#x49c;" glyph-name="uni049C" horiz-adv-x="680" d="M309 553V386h38L570 682h94L411 359 677 0H578L347 321H309V153H244V321H185V0H110V682h75V386h59V553h65Z"/>
<glyph unicode="&#x49d;" glyph-name="uni049D" horiz-adv-x="529" d="M276 388V276h40L435 478h79L374 255 524 0H443L319 219H276V108H216V219H154V0H84V478h70V276h62V388h60Z"/>
<glyph unicode="&#x41b;" glyph-name="uni041B" horiz-adv-x="739" d="M554 0V617H265l-5-161q-5-149-16.5-234.5T211 86 155.5 12.5 67-11Q38-11 18-4V58H62q35 0 56 19.5T153 142t22 122.5T187 465l7 217H629V0H554Z"/>
<glyph unicode="&#x43b;" glyph-name="uni043B" horiz-adv-x="575" d="M421 0V421H213l-3-92q-3-98-13-161.5T168 65 119 7.5 44-11Q39-11 9-8V51H34q29 0 48 14t31.5 46.5 19.5 88T143 343l4 135H491V0H421Z"/>
<glyph unicode="&#x409;" glyph-name="uni0409" horiz-adv-x="1070" d="M544 617H265l-5-161q-5-150-17-235T210 86 155 12.5 67-11Q39-11 18-4V58H62q36 0 57 19.5t34.5 64 21.5 122T187 465l7 217H619V418q60 1 168 1 88 0 146-23t87-69 29-116T1018.5 94t-91-71T781-1Q557 0 544 0V617Zm75-264V65q55-1 165-1 65 0 106 15.5t60.5 48T970 209q0 51-19 82.5t-59.5 47T786 354q-113 0-167-1Z"/>
<glyph unicode="&#x459;" glyph-name="uni0459" horiz-adv-x="833" d="M415 421H213l-3-92q-3-99-13.5-162.5t-29-102T119 7.5 44-11Q28-11 9-8V51H34q30 0 49 14.5t31.5 47 19 88T143 343l4 135H485V324q38 1 99 1 69 0 117-18.5t73-55T799 163q0-53-26.5-91.5T697 13 580-7Q504-7 415 4V421ZM485 60q44-8 96-8 50 0 81.5 12.5t47 36.5T725 162q0 36-16 59.5t-47.5 34T583 266q-61 0-98-1V60Z"/>
<glyph unicode="&#x41c;" glyph-name="uni041C" horiz-adv-x="942" d="M110 682H231L377 338q43-101 62.5-149T471 105h1q12 36 31.5 84.5T566 338L712 682H832V0H757V240q0 111 1 217t2 162h-2q-18-45-39-95T666 399L499 0H439L270 400q-52 122-66 157t-24 62h-2q1-56 1.5-162T180 240V0H110V682Z"/>
<glyph unicode="&#x43c;" glyph-name="uni043C" horiz-adv-x="770" d="M611 212q-14 104-28 206h-2L413 0H352L188 418h-2q-14-100-28-205L128 0H61l66 478H234L340 210q30-76 46-126h2q22 67 45 127L538 478H644L710 0H640L611 212Z"/>
<glyph unicode="&#x41d;" glyph-name="uni041D" horiz-adv-x="754" d="M110 682h75V387H569V682h75V0H569V320H185V0H110V682Z"/>
<glyph unicode="&#x43d;" glyph-name="uni043D" horiz-adv-x="571" d="M417 219H154V0H84V478h70V277H417V478h70V0H417V219Z"/>
<glyph unicode="&#x4a2;" glyph-name="uni04A2" horiz-adv-x="780" d="M700-156V0H569V320H185V0H110V682h75V387H569V682h75V65H765V-156H700Z"/>
<glyph unicode="&#x4a3;" glyph-name="uni04A3" horiz-adv-x="600" d="M523-143V0H417V219H154V0H84V478h70V277H417V478h70V58h98V-143H523Z"/>
<glyph unicode="&#x4a4;" glyph-name="uni04A4" horiz-adv-x="955" d="M560 0V320H185V0H110V682h75V387H560V682H950V617H635V0H560Z"/>
<glyph unicode="&#x4a5;" glyph-name="uni04A5" horiz-adv-x="719" d="M408 0V219H154V0H84V478h70V277H408V478H710V421H478V0H408Z"/>
<glyph unicode="&#x40a;" glyph-name="uni040A" horiz-adv-x="1084" d="M559 320H185V0H110V682h75V387H559V682h75V418q60 1 168 1 89 0 147-23.5t86.5-69.5T1064 211q0-70-31-117T942 23 795-1Q709-1 559 0V320ZM634 65q56-1 165-1 63 0 104 15t61 47 20 83q0 53-20 84.5t-60 46T801 354q-112 0-167-1V65Z"/>
<glyph unicode="&#x45a;" glyph-name="uni045A" horiz-adv-x="825" d="M407 219H154V0H84V478h70V277H407V478h70V324q37 1 98 1 70 0 118-18.5t73-55T791 163q0-51-25.5-90t-75-59.5T572-7Q496-7 407 4V219ZM477 60q44-8 96-8 49 0 81 12.5T701.5 101 717 162q0 36-16 59.5t-47.5 34T574 266q-60 0-97-1V60Z"/>
<glyph unicode="&#x41e;" glyph-name="uni041E" horiz-adv-x="778" d="M712 342q0-105-41-186.5T556 30 388-14q-96 0-169.5 44t-113 124.5T66 340t41 186.5T222 652t168 44q96 0 169.5-44t113-124.5T712 342Zm-80-1q0 87-29.5 153T518 595 389 630q-73 0-128.5-34.5T175 495 145 341q0-87 30-152.5t85-101T389 52 518 87t84.5 101T632 341Z"/>
<glyph unicode="&#x43e;" glyph-name="uni043E" horiz-adv-x="559" d="M510 240q0-74-28.5-132T401 19 278-12 155.5 18.5 76.5 106 49 238 77.5 370.5t80.5 89T281 491t122.5-31 79-88T510 240Zm-75-1q0 56-19 100t-54.5 68T279 431t-82.5-24.5-54-68.5T124 239t19-99 54.5-68T279 48q48 0 83.5 24t54 68T435 239Z"/>
<glyph unicode="&#x4e6;" glyph-name="uni04E6" horiz-adv-x="778" d="M712 342q0-105-41-186.5T556 30 388-14q-96 0-169.5 44t-113 124.5T66 340t41 186.5T222 652t168 44q96 0 169.5-44t113-124.5T712 342Zm-80-1q0 87-29.5 153T518 595 389 630q-73 0-128.5-34.5T175 495 145 341q0-87 30-152.5t85-101T389 52 518 87t84.5 101T632 341ZM463 761V873h75V761H463Zm-223 0V873h75V761H240Z"/>
<glyph unicode="&#x4e7;" glyph-name="uni04E7" horiz-adv-x="559" d="M510 240q0-74-28.5-132T401 19 278-12 155.5 18.5 76.5 106 49 238 77.5 370.5t80.5 89T281 491t122.5-31 79-88T510 240Zm-75-1q0 56-19 100t-54.5 68T279 431t-82.5-24.5-54-68.5T124 239t19-99 54.5-68T279 48q48 0 83.5 24t54 68T435 239ZM336 567V680h71V567H336Zm-184 0V680h71V567H152Z"/>
<glyph unicode="&#x472;" glyph-name="uni0472" horiz-adv-x="778" d="M712 342q0-105-41-186.5T556 30 388-14q-95 0-168.5 43.5T106 153.5 66 340q0 104 40.5 185T221 651t169 45q96 0 169.5-44t113-124.5T712 342ZM389 52q71 0 124.5 32t84 93T632 321H145q4-82 34.5-143T264 84.5 389 52Zm0 579q-68 0-120.5-30T185 515 147 384H631q-7 75-38 131t-83.5 86T389 631Z"/>
<glyph unicode="&#x473;" glyph-name="uni0473" horiz-adv-x="559" d="M510 240q0-75-29-133T399.5 18.5 278-12q-70 0-121.5 30T77 105 49 238q0 74 28.5 132t81 89.5T281 491q71 0 122.5-30.5t79-88T510 240ZM279 47q44 0 77.5 20.5t54 59T435 216H124q4-52 24.5-90.5t54-58.5T279 47Zm0 385q-42 0-75-19t-54-55.5T124 272H434q-5 47-25.5 83.5t-54 56.5T279 432Z"/>
<glyph unicode="&#x4e8;" glyph-name="uni04E8" horiz-adv-x="778" d="M712 342q0-105-41-186.5T556 30 388-14q-95 0-168.5 43.5T106 153.5 66 340q0 104 40.5 185T221 651t169 45q96 0 169.5-44t113-124.5T712 342ZM389 52q71 0 124.5 32t84 93T632 321H145q4-82 34.5-143T264 84.5 389 52Zm0 579q-68 0-120.5-30T185 515 147 384H631q-7 75-38 131t-83.5 86T389 631Z"/>
<glyph unicode="&#x4e9;" glyph-name="uni04E9" horiz-adv-x="559" d="M510 240q0-75-29-133T399.5 18.5 278-12q-70 0-121.5 30T77 105 49 238q0 74 28.5 132t81 89.5T281 491q71 0 122.5-30.5t79-88T510 240ZM279 47q44 0 77.5 20.5t54 59T435 216H124q4-52 24.5-90.5t54-58.5T279 47Zm0 385q-42 0-75-19t-54-55.5T124 272H434q-5 47-25.5 83.5t-54 56.5T279 432Z"/>
<glyph unicode="&#x41f;" glyph-name="uni041F" horiz-adv-x="752" d="M110 682H642V0H567V617H185V0H110V682Z"/>
<glyph unicode="&#x43f;" glyph-name="uni043F" horiz-adv-x="569" d="M415 0V421H154V0H84V478H485V0H415Z"/>
<glyph unicode="&#x420;" glyph-name="uni0420" horiz-adv-x="637" d="M110 682q127 1 253 1 87 0 145.5-23T596 591.5 625 479 594.5 366t-91-69.5T356 273q-106 0-171 1V0H110V682ZM546 478q0 49-19.5 79t-60 45T362 617q-123 0-177-1V339q55-1 175-1 64 0 105 15t61 46 20 79Z"/>
<glyph unicode="&#x440;" glyph-name="uni0440" horiz-adv-x="580" d="M84-207V241q0 59-0.5 118T81 478h68l2-71h1q23 41 64.5 62.5T313 491q66 0 115-30.5T503.5 373 530 242q0-77-27-134.5T426 19 310-12q-51 0-91.5 20T153 67h-1q2-34 2-89V-207H84Zm68 436q0-54 19-95.5t54-64T305 47q47 0 81 23.5t52 67T456 240q0 57-19.5 101T382 408t-81 23q-45 0-79-22t-52-63-18-96V229Z"/>
<glyph unicode="&#x421;" glyph-name="uni0421" horiz-adv-x="690" d="M654 170Q621 80 551 33T381-14q-92 0-164 43.5t-111.5 124T66 340t40 186T220 651t160 45q90 0 160-45T644 525l-66-30q-26 64-79 99.5T378 630q-67 0-120.5-35.5t-83-101T145 341q0-88 30-153.5t84-100T383 53q76 0 128 35.5T588 191l66-21Z"/>
<glyph unicode="&#x441;" glyph-name="uni0441" horiz-adv-x="515" d="M473 122Q441 52 391 20T269-12q-68 0-118 31T75 106.5 49 237q0 77 26.5 134T152 459.5 267 491q70 0 119-31.5T466 364l-63-33q-21 51-55 75.5T266 431q-43 0-75.5-23T141 341.5 124 239q0-57 17.5-100.5t51-67T271 48q51 0 85.5 24T414 148l59-26Z"/>
<glyph unicode="&#x4aa;" glyph-name="uni04AA" horiz-adv-x="690" d="M346-156V-12Q262-4 198.5 41t-98 122.5T66 340q0 105 39.5 185t113 125.5T380 696q90 0 160-45T644 525l-66-30q-26 64-79 99.5T378 630 256 593.5t-82.5-102T145 341q0-88 30-153.5t84-100T383 53q76 0 128 35.5T588 191l66-21Q624 87 561.5 40.5T411-13V-156H346Z"/>
<glyph unicode="&#x4ab;" glyph-name="uni04AB" horiz-adv-x="515" d="M233-143V-9q-57 8-98.5 40T71 116 49 237q0 77 27 134.5T152.5 460 267 491q70 0 119-31.5T466 364l-63-33q-22 51-55.5 75.5T266 431q-44 0-76.5-24t-49-67T124 239q0-57 18.5-101T194 71t77-23q51 0 85.5 24.5T414 148l59-26q-29-62-72-94T298-10V-143H233Z"/>
<glyph unicode="&#x405;" glyph-name="uni0405" horiz-adv-x="655" d="M106 168q51-58 111-88T344 50q50 0 88 15.5t58 44T510 174q0 34-16 58.5t-50 42-132 42-141.5 50-64 63T86 518q0 53 28.5 93.5T195 674t118 22q70 0 129.5-24T557 598l-46-55q-44 46-93 67.5T311 632q-46 0-80-13.5T180 580t-17-58q0-32 15.5-55.5t48.5-41T358 384t142.5-50T566 269.5 587 178q0-55-31-98.5T468.5 11 343-14q-83 0-153.5 32T60 114l46 54Z"/>
<glyph unicode="&#x455;" glyph-name="uni0455" horiz-adv-x="487" d="M87 123q36-37 79.5-56.5T254 47q50 0 78.5 20.5T361 125q0 21-10.5 36.5t-33 26.5T227 215t-99.5 34.5T81 295.5 66 361q0 39 21 68.5T146.5 475 233 491q51 0 97.5-17.5T415 423l-41-49q-30 29-66 43.5T232 432q-29 0-50.5-8t-33-23.5T137 364t11-36.5 33-26T270.5 275 370 240.5 417.5 194 433 127q0-41-22.5-72.5t-64-49T253-12Q194-12 142 9T47 72l40 51Z"/>
<glyph unicode="&#x422;" glyph-name="uni0422" horiz-adv-x="533" d="M229 616H-8v66H540V616H304V0H229V616Z"/>
<glyph unicode="&#x442;" glyph-name="uni0442" horiz-adv-x="431" d="M180 0V421H19v57H411V421H250V0H180Z"/>
<glyph unicode="&#x423;" glyph-name="uni0423" horiz-adv-x="610" d="M367 169q-31-67-62.5-106.5t-69-57T145-12q-23 0-61 5V56h61q40 0 65 11.5t45.5 37T296 173L14 682h86L335 254 530 682h79L367 169Z"/>
<glyph unicode="&#x443;" glyph-name="uni0443" horiz-adv-x="488" d="M114-207L212-2 13 478H94l81-202q32-79 71-195h2q29 95 70 195l81 202h76L190-207H114Z"/>
<glyph unicode="&#x40e;" glyph-name="uni040E" horiz-adv-x="610" d="M367 169q-31-67-62.5-106.5t-69-57T145-12q-23 0-61 5V56h61q40 0 65 11.5t45.5 37T296 173L14 682h86L335 254 530 682h79L367 169ZM492 884q-6-66-47.5-102.5T334 745 224.5 781.5 178 884h69q5-42 27.5-65.5T335 795t60 24 28 65h69Z"/>
<glyph unicode="&#x45e;" glyph-name="uni045E" horiz-adv-x="488" d="M114-207L212-2 13 478H94l81-202q32-79 71-195h2q29 95 70 195l81 202h76L190-207H114ZM393 689q-8-68-44.5-101.5T247 554q-66 0-101 33T103 689h66q10-46 28.5-66.5T248 602q34 0 54.5 23T327 689h66Z"/>
<glyph unicode="&#x4ee;" glyph-name="uni04EE" horiz-adv-x="610" d="M367 169q-31-67-62.5-106.5t-69-57T145-12q-23 0-61 5V56h61q40 0 65 11.5t45.5 37T296 173L14 682h86L335 254 530 682h79L367 169ZM470 781H173v62H470V781Z"/>
<glyph unicode="&#x4ef;" glyph-name="uni04EF" horiz-adv-x="488" d="M114-207L212-2 13 478H94l81-202q32-79 71-195h2q29 95 70 195l81 202h76L190-207H114ZM380 588H112v59H380V588Z"/>
<glyph unicode="&#x4f2;" glyph-name="uni04F2" horiz-adv-x="610" d="M367 169q-31-67-62.5-106.5t-69-57T145-12q-23 0-61 5V56h61q40 0 65 11.5t45.5 37T296 173L14 682h86L335 254 530 682h79L367 169ZM469 881H576L450 749H376l93 132Zm-220 0H350L243 749H174l75 132Z"/>
<glyph unicode="&#x4f3;" glyph-name="uni04F3" horiz-adv-x="488" d="M114-207L212-2 13 478H94l81-202q32-79 71-195h2q29 95 70 195l81 202h76L190-207H114ZM374 692h99L356 551H289l85 141Zm-191 0h92L180 551H116l67 141Z"/>
<glyph unicode="&#x4f0;" glyph-name="uni04F0" horiz-adv-x="610" d="M367 169q-31-67-62.5-106.5t-69-57T145-12q-23 0-61 5V56h61q40 0 65 11.5t45.5 37T296 173L14 682h86L335 254 530 682h79L367 169Zm42 592V873h75V761H409Zm-223 0V873h75V761H186Z"/>
<glyph unicode="&#x4f1;" glyph-name="uni04F1" horiz-adv-x="488" d="M114-207L212-2 13 478H94l81-202q32-79 71-195h2q29 95 70 195l81 202h76L190-207H114ZM303 567V680h71V567H303Zm-184 0V680h71V567H119Z"/>
<glyph unicode="&#x4ae;" glyph-name="uni04AE" horiz-adv-x="604" d="M264 0V292L0 682H91L304 362 517 682h87L340 292V0H264Z"/>
<glyph unicode="&#x4af;" glyph-name="uni04AF" horiz-adv-x="487" d="M207-207V1L13 478H94l81-209q32-79 71-196h1q28 93 70 196l80 209h77L280 1V-207H207Z"/>
<glyph unicode="&#x4b0;" glyph-name="uni04B0" horiz-adv-x="604" d="M264 0V225H105v61H264v6L0 682H91L304 362 517 682h87L340 292v-6H499V225H340V0H264Z"/>
<glyph unicode="&#x4b1;" glyph-name="uni04B1" horiz-adv-x="487" d="M47 0V57H184L13 478H94l81-209q15-38 34-90.5T246 73h1q11 36 31.5 94T317 269l80 209h77L303 57H440V0H280V-207H207V0H47Z"/>
<glyph unicode="&#x424;" glyph-name="uni0424" horiz-adv-x="984" d="M454-30V80l-76 2q-107 2-182 35T82.5 213 44 365q0 85 41.5 149.5t118 100T378 651l76 1v88h76V652l76-1q106-2 181-35t114-96 39-152q0-85-41.5-149.5t-118-100T606 82l-76-2V-30H454Zm0 620l-76-1q-80-1-137.5-27.5t-87-76T124 366t30-119.5T241.5 171 378 144l76-1V590Zm76-447l76 1q81 1 138.5 28T831 248.5 860 366q0 70-29.5 119.5t-87 76T606 589l-76 1V143Z"/>
<glyph unicode="&#x444;" glyph-name="uni0444" horiz-adv-x="738" d="M334-207V-8Q240-3 176.5 27T81 110 49 236q0 76 33.5 130.5t97 84.5T334 486V711h70V486q92-5 155.5-34T656 370t33-128q0-76-33.5-130.5T558.5 27 404-8V-207H334Zm0 636q-67-3-114.5-25.5t-71.5-64T124 239t24-100 71-63.5T334 50V429ZM404 50q67 3 114.5 25.5T590 139t24 100q0 60-24.5 101T518 403.5 404 429V50Z"/>
<glyph unicode="&#x425;" glyph-name="uni0425" horiz-adv-x="591" d="M250 359L32 682h92L297 419 473 682h86L342 364 587 0H496L295 304 91 0H4L250 359Z"/>
<glyph unicode="&#x445;" glyph-name="uni0445" horiz-adv-x="465" d="M10 0L190 252 30 478h87L235 303 353 478h81L274 253 455 0H367L230 203 92 0H10Z"/>
<glyph unicode="&#x4b2;" glyph-name="uni04B2" horiz-adv-x="642" d="M576-156V0H496L295 304 91 0H4L250 359 32 682h92L297 419 473 682h86L342 364 543 65h99V-156H576Z"/>
<glyph unicode="&#x4b3;" glyph-name="uni04B3" horiz-adv-x="505" d="M443-143V0H367L230 203 92 0H10L190 252 30 478h87L235 303 353 478h81L274 253 413 58h92V-143H443Z"/>
<glyph unicode="&#x426;" glyph-name="uni0426" horiz-adv-x="763" d="M683-156V0H110V682h75V65H552V682h75V65H748V-156H683Z"/>
<glyph unicode="&#x446;" glyph-name="uni0446" horiz-adv-x="588" d="M510-143V0H84V478h70V58H405V478h70V58h98V-143H510Z"/>
<glyph unicode="&#x40f;" glyph-name="uni040F" horiz-adv-x="737" d="M336-156V0H110V682h75V65H552V682h75V0H401V-156H336Z"/>
<glyph unicode="&#x45f;" glyph-name="uni045F" horiz-adv-x="559" d="M248-143V0H84V478h70V58H405V478h70V0H311V-143H248Z"/>
<glyph unicode="&#x427;" glyph-name="uni0427" horiz-adv-x="680" d="M495 0V267H297q-80 0-131.5 22t-77 68T63 473V682h75V498q0-61 17.5-97T209 348.5 306 332H495V682h75V0H495Z"/>
<glyph unicode="&#x447;" glyph-name="uni0447" horiz-adv-x="520" d="M366 0V212q-21-32-59.5-51.5T225 141q-87 0-130 47.5T52 332V478h70V344q0-56 15.5-88.5T179 212t55-11q39 0 69 20t46.5 58T366 368V478h70V0H366Z"/>
<glyph unicode="&#x4f4;" glyph-name="uni04F4" horiz-adv-x="680" d="M495 0V267H297q-80 0-131.5 22t-77 68T63 473V682h75V498q0-61 17.5-97T209 348.5 306 332H495V682h75V0H495ZM393 761V873h75V761H393Zm-223 0V873h75V761H170Z"/>
<glyph unicode="&#x4f5;" glyph-name="uni04F5" horiz-adv-x="520" d="M366 0V212q-21-32-59.5-51.5T225 141q-87 0-130 47.5T52 332V478h70V344q0-56 15.5-88.5T179 212t55-11q39 0 69 20t46.5 58T366 368V478h70V0H366ZM300 567V680h71V567H300Zm-184 0V680h71V567H116Z"/>
<glyph unicode="&#x4b8;" glyph-name="uni04B8" horiz-adv-x="683" d="M356 509V332H498V682h75V0H498V267H356V110H292V267q-79 1-129 23T88 357.5 63 473V682h75V498q0-58 16-93.5t49.5-53T292 332V509h64Z"/>
<glyph unicode="&#x4b9;" glyph-name="uni04B9" horiz-adv-x="534" d="M273 330V204q50 10 78.5 54T380 368V478h70V0H380V212q-17-25-45-42.5T273 145V49H213v92q-54 4-90 26.5t-53.5 64T52 332V478h70V344q0-67 22-100.5T213 203V330h60Z"/>
<glyph unicode="&#x4b6;" glyph-name="uni04B6" horiz-adv-x="706" d="M626-156V0H495V267H297q-81 0-132.5 22.5T88 358 63 473V682h75V498q0-61 17.5-97T209 348.5 306 332H495V682h75V65H691V-156H626Z"/>
<glyph unicode="&#x4b7;" glyph-name="uni04B7" horiz-adv-x="549" d="M471-143V0H366V212q-21-32-59.5-51.5T225 141q-86 0-129.5 48T52 332V478h70V344q0-50 12.5-81.5T172 216t62-15q40 0 70 20t46 58 16 89V478h70V58h98V-143H471Z"/>
<glyph unicode="&#x428;" glyph-name="uni0428" horiz-adv-x="1107" d="M110 0V682h75V65H516V682h75V65H922V682h75V0H110Z"/>
<glyph unicode="&#x448;" glyph-name="uni0448" horiz-adv-x="831" d="M84 0V478h70V58H380V478h70V58H677V478h70V0H84Z"/>
<glyph unicode="&#x429;" glyph-name="uni0429" horiz-adv-x="1134" d="M1053-156V0H110V682h75V65H516V682h75V65H922V682h75V65h122V-156h-66Z"/>
<glyph unicode="&#x449;" glyph-name="uni0449" horiz-adv-x="860" d="M783-143V0H84V478h70V58H380V478h70V58H677V478h70V58h98V-143H783Z"/>
<glyph unicode="&#x42a;" glyph-name="uni042A" horiz-adv-x="745" d="M284 353V65q56-1 175-1 65 0 106 15.5t60.5 48T645 209q0 51-19 82.5t-59.5 47T461 354q-123 0-177-1ZM209 618H-8v64H284V418q60 1 178 1 88 0 146-23t87-69 29-116q0-69-30-116T603.5 23.5 455-1Q355-1 209 0V618Z"/>
<glyph unicode="&#x44a;" glyph-name="uni044A" horiz-adv-x="577" d="M159 421H19v57H229V324q38 1 99 1 69 0 117.5-18.5t73-55T543 163q0-51-25.5-90T443 13.5 324-7Q248-7 159 4V421ZM229 60q44-8 96-8 48 0 80 12t48 36 16 62q0 35-15 58.5T407.5 255 327 266q-61 0-98-1V60Z"/>
<glyph unicode="&#x42b;" glyph-name="uni042B" horiz-adv-x="918" d="M185 353V65q55-1 165-1 65 0 106 15.5t60.5 48T536 209q0 51-19 82.5t-59.5 47T352 354q-113 0-167-1ZM110 682h75V418q60 1 168 1 88 0 146-23t87-69 29-116q0-69-30-116T494.5 23.5 346-1Q244-1 110 0V682ZM734 0V682h75V0H734Z"/>
<glyph unicode="&#x44b;" glyph-name="uni044B" horiz-adv-x="702" d="M84 478h70V324q37 1 98 1 68 0 115-18t70.5-54T461 163q0-53-25-91.5T363 13 248-7Q173-7 84 4V478ZM154 60q43-8 96-8 48 0 78 12t44.5 36T387 162q0 37-15 60t-45 33.5T250 266q-59 0-96-1V60ZM548 0V478h70V0H548Z"/>
<glyph unicode="&#x4f8;" glyph-name="uni04F8" horiz-adv-x="918" d="M185 353V65q55-1 165-1 65 0 106 15.5t60.5 48T536 209q0 51-19 82.5t-59.5 47T352 354q-113 0-167-1ZM110 682h75V418q60 1 168 1 88 0 146-23t87-69 29-116q0-69-30-116T494.5 23.5 346-1Q244-1 110 0V682ZM734 0V682h75V0H734ZM533 761V873h75V761H533Zm-223 0V873h75V761H310Z"/>
<glyph unicode="&#x4f9;" glyph-name="uni04F9" horiz-adv-x="702" d="M84 478h70V324q37 1 98 1 68 0 115-18t70.5-54T461 163q0-53-25-91.5T363 13 248-7Q173-7 84 4V478ZM154 60q43-8 96-8 48 0 78 12t44.5 36T387 162q0 37-15 60t-45 33.5T250 266q-59 0-96-1V60ZM548 0V478h70V0H548ZM407 567V680h71V567H407Zm-184 0V680h71V567H223Z"/>
<glyph unicode="&#x42c;" glyph-name="uni042C" horiz-adv-x="646" d="M185 353V65q55-1 175-1 65 0 106 15.5t60.5 48T546 209q0 51-19 82.5t-59.5 47T362 354q-123 0-177-1ZM110 682h75V418q60 1 178 1 88 0 146-23t87-69 29-116q0-69-30-116T504.5 23.5 356-1Q256-1 110 0V682Z"/>
<glyph unicode="&#x44c;" glyph-name="uni044C" horiz-adv-x="502" d="M84 478h70V324q37 1 98 1 72 0 120-19t72-55.5T468 163 442.5 73t-75-59.5T249-7Q173-7 84 4V478ZM154 60q43-8 96-8 72 0 107.5 27.5T393 162q0 54-34 79T251 266q-60 0-97-1V60Z"/>
<glyph unicode="&#x402;" glyph-name="uni0402" horiz-adv-x="734" d="M229 616H-8v66H540V616H304V404q104 2 151 2 85 0 142.5-22.5t87-67.5T714 203q0-66-25.5-113.5T614 16 499-10q-44 0-74 9V64q37-8 72-8 42 0 73 16t47.5 48T634 198q0 51-20.5 82.5t-60.5 46T449 341q-50 0-145-2V0H229V616Z"/>
<glyph unicode="&#x452;" glyph-name="uni0452" horiz-adv-x="560" d="M84 0V562H-15v57H84v94h70V619H296V562H154V501q0-58-3-94h1q24 40 64 62t92 22q56 0 95-21.5t59-64T482 300V-31q0-101-28-142.5T357-215q-31 0-50 5v55h45q34 0 47 26.5T412-31V272q0 45-3.5 66T396 376q-13 27-39 41t-62 14q-27 0-51.5-9.5T203 396q-26-26-37.5-64.5T154 228V0H84Z"/>
<glyph unicode="&#x40b;" glyph-name="uni040B" horiz-adv-x="779" d="M641 0V162q0 59-16.5 95t-53 53T473 327H304V0H229V616H-8v66H540V616H304V392H481q81 0 132.5-22t77-67.5T716 187V0H641Z"/>
<glyph unicode="&#x45b;" glyph-name="uni045B" horiz-adv-x="560" d="M84 562H-15v57H84v92h70V619H296V562H154V501q0-58-3-94h1q24 40 64 62t92 22q56 0 95-21.5t59-64T482 300V0H412V272q0 44-3.5 65T396 376q-13 27-39 41t-62 14q-27 0-51.5-9.5T203 396q-26-26-37.5-64.5T154 228V0H84V562Z"/>
<glyph unicode="&#x4ba;" glyph-name="uni04BA" horiz-adv-x="680" d="M542 0V184q0 61-17.5 97t-54 52.5T374 350H185V0H110V682h75V415H382q81 0 132.5-22t77-68T617 209V0H542Z"/>
<glyph unicode="&#x4bb;" glyph-name="uni04BB" horiz-adv-x="560" d="M84 711h70V501q0-58-3-94h1q24 40 64 62t92 22q56 0 95-21.5t59-64T482 300V0H412V272q0 44-3.5 65T396 376q-13 27-39 41t-62 14q-27 0-51.5-9.5T203 396q-26-26-37.5-64.5T154 228V0H84V711Z"/>
<glyph unicode="&#x42d;" glyph-name="uni042D" horiz-adv-x="686" d="M201 378H540q-5 81-33.5 137.5t-77.5 86T313 631q-71 0-123-34t-80-98L46 529q40 81 109.5 124T316 696q93 0 162.5-43T584 530.5 620 342q0-108-38-188T473 30 312-14q-96 0-167.5 45T36 160l67 33q29-68 84-104.5T315 52q65 0 114.5 31t78 90T540 314H201v64Z"/>
<glyph unicode="&#x44d;" glyph-name="uni044D" horiz-adv-x="516" d="M174 273H391q-5 47-25.5 83t-54 56T236 432q-46 0-80.5-22T101 350L45 382q27 51 77.5 80T237 491q71 0 123-30.5T439.5 373 467 240q0-74-28.5-132t-81-89T235-12q-67 0-116 27T40 96l60 33q23-42 56-62t80-20q45 0 79 21t53.5 59.5T392 217H174v56Z"/>
<glyph unicode="&#x404;" glyph-name="uni0404" horiz-adv-x="689" d="M145 314q5-81 35.5-140.5t83-90.5T384 52q75 0 127.5 35T590 189l63-27Q618 76 548.5 31T382-14q-93 0-165 43.5t-111.5 124T66 340t40 186T219.5 651 381 696t157.5-42.5T643 534l-62-37q-28 63-81.5 98.5T379 631q-63 0-114.5-31t-82-88T146 378H485V314H145Z"/>
<glyph unicode="&#x454;" glyph-name="uni0454" horiz-adv-x="513" d="M124 217q3-52 22-90.5t51-59T272 47q50 0 85.5 20T418 129l53-33q-35-56-84-82T270-12q-67 0-117.5 30.5t-77 87T49 237q0 77 27 134.5T153.5 460 269 491q68 0 116.5-28T465 379l-53-36q-22 45-58.5 67T266 432q-39 0-70-19.5T147 357t-23-84H341V217H124Z"/>
<glyph unicode="&#x42e;" glyph-name="uni042E" horiz-adv-x="1047" d="M981 342q0-104-38-185T834.5 31 674-14q-88 0-156.5 41.5t-107 118T369 322H185V0H110V682h75V386H371q8 92 48.5 162.5t107 109T676 696q91 0 160.5-43.5t107-124T981 342Zm-79-1q0 88-28 154T794.5 595.5 675 630 555.5 595t-79-101T449 341t27.5-153T555 87 675 52 795.5 87.5t79 101T902 341Z"/>
<glyph unicode="&#x44e;" glyph-name="uni044E" horiz-adv-x="767" d="M718 240q0-76-28-134T612 18 496-12q-65 0-113.5 27t-76 80T276 220H154V0H84V478h70V277H278q6 64 35 113t76 75 109 26q67 0 117-30t76.5-87T718 240Zm-75-1q0 56-17.5 100t-51 68T497 431q-45 0-78.5-24T368 339 351 239q0-57 18.5-101t51-67T497 48t77 23 51 67 18 101Z"/>
<glyph unicode="&#x42f;" glyph-name="uni042F" horiz-adv-x="691" d="M507 0V279H355L131 0H38L269 285q-67 8-111 33T92.5 383.5 71 479q0 50 18 88.5t52 64T223.5 670 333 683q124 0 249-1V0H507Zm0 617q-55 1-176 1-61 0-101-15t-59.5-45T151 481q0-46 20.5-76.5T234 359t106-15q114 0 167 2V617Z"/>
<glyph unicode="&#x44f;" glyph-name="uni044F" horiz-adv-x="542" d="M389 0V190H279L124 0H37L202 196q-43 7-72 25.5T86.5 269 72 336q0 47 25 80.5t73 51T287 485q79 0 172-10V0H389Zm0 419q-56 8-104 8-49 0-79.5-9.5t-45-29.5T146 337t14.5-51 45-30T284 246q73 0 105 1V419Z"/>
<glyph unicode="`" glyph-name="grave" horiz-adv-x="324" d="M254 551H187L70 692h99l85-141Z"/>
<glyph unicode="&#xb4;" glyph-name="acute" horiz-adv-x="332" d="M159 692h98L141 551H75l84 141Z"/>
<glyph unicode="&#xa8;" glyph-name="dieresis" horiz-adv-x="417" d="M265 567V680h71V567H265ZM81 567V680h71V567H81Z"/>
<glyph unicode="&#x2c9;" glyph-name="macron" horiz-adv-x="430" d="M349 588H81v59H349V588Z"/>
<glyph unicode="&#xb8;" glyph-name="cedilla" horiz-adv-x="286" d="M80-207q23 19 38.5 40.5T134-129q0 14-10.5 25T84-78L129 1h64L162-53q22-15 32.5-32.5T205-125q0-20-14.5-42.5T154-207H80Z"/>
<glyph unicode="&#xaa;" glyph-name="ordfeminine" horiz-adv-x="498" d="M77 181v56H402V181H77ZM348 551q-63 0-106-5.5T173.5 529 136 501.5 124 459q0-36 24.5-56T218 383q37 0 66.5 18T331 451t17 68v32Zm62-97q0-22 1.5-59.5T413 342H351l-1 64q-25-36-63-55.5T205 331q-43 0-77 15T75.5 389.5 57 458q0 37 16.5 63.5t51.5 44 90 27T348 602v32q-1 49-27 74t-76 25q-41 0-74-19t-62-60L65 692q38 49 82.5 71.5T247 786q80 0 121.5-38T410 637V454Z"/>
<glyph unicode="&#xba;" glyph-name="ordmasculine" horiz-adv-x="532" d="M77 181v56H455V181H77ZM475 559q0-67-25.5-119.5t-73-81T265 330q-65 0-111.5 28T82 437.5 57 557q0 67 25.5 119.5t73.5 81T267 786q64 0 111-27t72-79 25-121Zm-68-1q0 51-17.5 91t-50 61.5T266 732q-43 0-74.5-22t-49-62T125 558t17.5-90T192 406t74-22q43 0 75 22t49 62 17 90Z"/>
<glyph unicode="!" glyph-name="exclam" horiz-adv-x="350" d="M140 210L130 711h91L210 210H140ZM130 0V129h90V0H130Z"/>
<glyph unicode="&#xa1;" glyph-name="exclamdown" horiz-adv-x="350" d="M209 405L221-96H130l11 501h68Zm11 210V486H130V615h90Z"/>
<glyph unicode="?" glyph-name="question" horiz-adv-x="612" d="M279 276q0 24 7.5 44t23 38T366 405.5t58 49T449 496t8 48q0 33-19.5 60.5T384 647t-78 15q-45 0-81-17t-55-47.5T151 528q0-18 1-32t4-24H84q-4 11-5.5 24.5T77 525q0 59 28.5 104.5T187 700t122 25q66 0 118-23t80-63.5T535 547q0-34-9.5-63t-30-54T433 374.5t-55-44-20-28T351 272l-1-62H280l-1 66ZM270 0V129h90V0H270Z"/>
<glyph unicode="&#xbf;" glyph-name="questiondown" horiz-adv-x="612" d="M333 339q0-25-7.5-45t-23-38T246 208.5 188.5 160t-25-41T155 71q0-33 19-60t53-42.5T305-47q46 0 82 17t55 47.5T461 87q-2 46-5 56h72q4-11 7-53 0-59-28.5-104.5T424.5-85 303-110q-67 0-119 23T104.5-23.5 77 68q0 34 9.5 62.5t30 53.5T179 240t55 44.5 20 28 7 30.5l1 62h70l1-66Zm9 276V486H252V615h90Z"/>
<glyph unicode="," glyph-name="comma" horiz-adv-x="256" d="M177 142V24q0-87-7.5-123.5T143-159 80-208L53-166q33 24 45 40t16.5 41T119 0H79V142h98Z"/>
<glyph unicode=";" glyph-name="semicolon" horiz-adv-x="294" d="M99 345V478h96V345H99Zm96-212V24q0-89-7.5-124T160-159 97-208L70-165q33 23 45 38.5T131.5-85 136 0H99V133h96Z"/>
<glyph unicode=":" glyph-name="colon" horiz-adv-x="294" d="M99 345V478h96V345H99ZM99 0V133h96V0H99Z"/>
<glyph unicode="." glyph-name="period" horiz-adv-x="256" d="M79 0V142h98V0H79Z"/>
<glyph unicode="&#x2026;" glyph-name="ellipsis" horiz-adv-x="833" d="M655 0V142h99V0H655ZM367 0V142h99V0H367ZM79 0V142h98V0H79Z"/>
<glyph unicode="&#x2018;" glyph-name="quoteleft" horiz-adv-x="256" d="M79 475V588q0 66 7 100.5T112 748t63 53l27-43q-29-21-42.5-39.5t-18-41.5T137 611h40V475H79Z"/>
<glyph unicode="&#x2019;" glyph-name="quoteright" horiz-adv-x="256" d="M177 780V668q0-72-8-107t-28-58.5T80 455L53 497q32 22 44.5 39t17 40 4.5 68H79V780h98Z"/>
<glyph unicode="&#x201c;" glyph-name="quotedblleft" horiz-adv-x="438" d="M79 475V588q0 67 7 101.5t26 60T170 801l27-43q-32-25-42-42t-15-40.5T135 611h37V475H79Zm186 0V588q0 69 8 103.5T299.5 751 357 801l27-43q-32-25-42.5-42t-15-40.5T322 611h37V475H265Z"/>
<glyph unicode="&#x201d;" glyph-name="quotedblright" horiz-adv-x="438" d="M359 780V668q0-71-7.5-105.5t-25.5-58T268 455l-28 42q28 20 40.5 37.5t17 41T302 644H265V780h94Zm-187 0V668q0-71-7-105.5t-25.5-58T81 455L53 497q28 20 40.5 37.5t17.5 41 5 68.5H79V780h93Z"/>
<glyph unicode="&#x201a;" glyph-name="quotesinglbase" horiz-adv-x="256" d="M177 136V24q0-72-8-107t-28-58.5T80-189L53-147q32 22 44.5 39t17 40T119 0H79V136h98Z"/>
<glyph unicode="&#x201e;" glyph-name="quotedblbase" horiz-adv-x="438" d="M359 136V24q0-71-7.5-105.5t-25.5-58T268-189l-28 42q28 20 40.5 37.5t17 41T302 0H265V136h94Zm-187 0V24q0-71-7-105.5t-25.5-58T81-189L53-147q28 20 40.5 37.5t17.5 41T116 0H79V136h93Z"/>
<glyph unicode="&#x2039;" glyph-name="guilsinglleft" horiz-adv-x="400" d="M257 43L77 272 257 502l55-30L172 274 311 74 257 43Z"/>
<glyph unicode="&#x203a;" glyph-name="guilsinglright" horiz-adv-x="400" d="M143 503L322 273 143 43 88 73 227 271 88 471l55 32Z"/>
<glyph unicode="&#xab;" glyph-name="guillemotleft" horiz-adv-x="644" d="M501 59L330 272 501 486l55-30L425 274 556 90 501 59ZM257 43L77 272 257 502l55-30L172 274 311 74 257 43Z"/>
<glyph unicode="&#xbb;" glyph-name="guillemotright" horiz-adv-x="644" d="M143 486L314 273 143 59 88 89 219 271 88 455l55 31Zm245 17L567 273 387 44 333 73 472 271 333 471l55 32Z"/>
<glyph unicode="/" glyph-name="slash" horiz-adv-x="392" d="M-46-164L339 778h72L26-164H-46Z"/>
<glyph unicode="|" glyph-name="bar" horiz-adv-x="314" d="M122-171V815h69V-171H122Z"/>
<glyph unicode="&#xa6;" glyph-name="brokenbar" horiz-adv-x="314" d="M122-171V218h69V-171H122Zm0 597V815h69V426H122Z"/>
<glyph unicode="\" glyph-name="backslash" horiz-adv-x="392" d="M366-164L-19 778H52L438-164H366Z"/>
<glyph unicode="&#x2010;" glyph-name="hyphen" horiz-adv-x="360" d="M39 237v72H321V237H39Z"/>
<glyph unicode="&#x2013;" glyph-name="endash" horiz-adv-x="650" d="M587 242H63v63H587V242Z"/>
<glyph unicode="&#x2014;" glyph-name="emdash" horiz-adv-x="968" d="M921 242H47v63H921V242Z"/>
<glyph unicode="_" glyph-name="underscore" horiz-adv-x="650" d="M650-217H0v60H650v-60Z"/>
<glyph unicode="&#x2022;" glyph-name="bullet" horiz-adv-x="418" d="M338 323q0-36-18-66.5T272 209t-64-17q-36 0-66 17.5T95.5 257 79 321q0 36 18 66.5T145.5 435 210 452q36 0 65.5-17.5t46-47.5T338 323Z"/>
<glyph unicode="&#x2219;" glyph-name="periodcentered" horiz-adv-x="255" d="M80 263V381h95V263H80Z"/>
<glyph unicode="(" glyph-name="parenleft" horiz-adv-x="312" d="M224-171Q156-65 119 62T82 322q0 132 37 260T224 815h72Q227 705 191.5 579.5T156 323q0-132 34.5-255T295-171H224Z"/>
<glyph unicode=")" glyph-name="parenright" horiz-adv-x="312" d="M88 815q68-106 104.5-233T229 322q0-88-17-175.5t-48.5-168T88-171H16Q84-61 120 64.5T156 321q0 132-35 255T17 815H88Z"/>
<glyph unicode="[" glyph-name="bracketleft" horiz-adv-x="365" d="M333-171H110V815H333V755H179V-111H333v-60Z"/>
<glyph unicode="]" glyph-name="bracketright" horiz-adv-x="365" d="M32-171v60H186V755H32v60H256V-171H32Z"/>
<glyph unicode="{" glyph-name="braceleft" horiz-adv-x="398" d="M37 352H68q31 0 46.5 10t22 36 6.5 80V636q0 62 16 101t50 58.5T300 815h66V755H299q-36 0-54-11t-25.5-36.5T212 635V481q0-52-5.5-83T188 350.5 150 323v-1q25-11 38-27.5t18.5-47T212 167V10q0-49 8.5-74.5t27.5-36T301-111h65v-60H298q-56 0-89.5 18.5T159-95 143 6V164q0 54-7 81t-22.5 37T67 292H37v60Z"/>
<glyph unicode="}" glyph-name="braceright" horiz-adv-x="398" d="M32-171v60H99q34 0 52 10t26.5 35T186 8V163q0 52 6 83t18.5 47.5T248 321v1q-25 11-37.5 27.5t-18.5 47T186 477V634q0 49-8.5 74.5t-27.5 36T97 755H32v60h69q55 0 88.5-18.5t50-57T256 638V480q0-54 6.5-81T285 362t46-10h30V292H331q-32 0-47.5-10T262 246t-6-80V8q0-64-17.5-103T187-152.5 99-171H32Z"/>
<glyph unicode="*" glyph-name="asterisk" horiz-adv-x="498" d="M274 558l163 63 21-65L289 510 399 375l-55-40L249 481 153 335 98 375 208 510 40 556l21 65 162-63-8 175h68l-9-175Z"/>
<glyph unicode="&#x2020;" glyph-name="dagger" horiz-adv-x="489" d="M210 96V521H45v60H210V757h70V581H444V521H280V96H210Z"/>
<glyph unicode="&#x2021;" glyph-name="daggerdbl" horiz-adv-x="489" d="M444 267H280V82H210V267H45v60H210V521H45v60H210V757h70V581H444V521H280V327H444V267Z"/>
<glyph unicode="&#xa7;" glyph-name="section" horiz-adv-x="610" d="M484 255q0 31-16 54t-48 40T317.5 386 220 416q-39-21-58-48.5T143 305q0-31 16-54t48.5-40T310 174t97-30q39 23 58 50.5T484 255ZM70 298q0 43 25.5 82.5T166 447q-27 20-41.5 49.5T110 561q0 70 53 112.5T302 716q58 0 107-18t91-54l-43-56q-34 33-73 49t-84 16q-54 0-84.5-23T185 567q0-26 13.5-46T241 485.5t114.5-41 124.5-49 58-56T557 263q0-43-25.5-82.5T462 114q26-20 40.5-50T517-1q0-69-54-112T321-156q-62 0-119 23T102-68L146-9q35-39 81.5-60.5T323-91q58 0 89 22T443-6q0 26-13.5 46T387 75.5t-115 41-125 49-58 56T70 298Z"/>
<glyph unicode="&#xb6;" glyph-name="paragraph" horiz-adv-x="700" d="M523-207V620H412V-207H344V237H309q-80 0-137.5 27.5t-88 78T53 462q0 70 32.5 119.5t92.5 75T318 682q30 0 65.5-0.5T445 681H590V-207H523Z"/>
<glyph unicode="^" glyph-name="asciicircum" horiz-adv-x="650" d="M478 351q-39 65-78.5 135.5T325 625h-1q-33-64-73-135T169 351H83L286 682h78L567 351H478Z"/>
<glyph unicode="~" glyph-name="asciitilde" horiz-adv-x="650" d="M68 236q0 63 15 105t45 62.5T203 424q36 0 68.5-16t75-60T409 292.5 449 281q26 0 40 13.5t20.5 41T516 408h66q0-63-15-105t-45-62.5T447 220q-36 0-68.5 16T303 296.5 240.5 352 201 363q-26 0-40-13.5t-20.5-41T134 236H68Z"/>
<glyph unicode="&apos;" glyph-name="quotesingle" horiz-adv-x="243" d="M90 449L81 730h81l-9-281H90Z"/>
<glyph unicode="&quot;" glyph-name="quotedbl" horiz-adv-x="436" d="M284 449l-9 281h79l-9-281H284ZM90 449L81 730h80l-9-281H90Z"/>
<glyph unicode="&amp;" glyph-name="ampersand" horiz-adv-x="764" d="M184 559q0-37 18.5-69.5T264 414q59 26 85 41.5T391.5 487t25 35 8.5 41q0 45-33.5 72.5T304 663q-56 0-88-28t-32-76ZM299 48q126 0 205 79-86 64-151 116.5T242 338q-62-34-88.5-69.5T127 188q0-65 46.5-102.5T299 48ZM50 182q0 65 34.5 113.5T197 383q-47 49-67.5 89T109 553q0 53 23.5 91.5t69 59.5T308 725q58 0 101.5-20t67-56T500 569q0-31-10.5-57.5t-31-48.5T407 421.5 310 371q45-40 104-86.5T548 184q28 45 42 103t14 126h72q0-78-19-146T602 144L753 36 709-20Q613 47 556 89 506 39 439.5 12.5T296-14Q185-14 117.5 40T50 182Z"/>
<glyph unicode="@" glyph-name="at" horiz-adv-x="1033" d="M625 303q0 66-27 96.5T513 430q-48 0-82.5-26T377 330 358 228q0-66 26-97t80-31q51 0 86.5 26t55 74T625 303Zm342 30q0-86-27.5-153.5T861 76.5 740 41q-53 0-82.5 21T623 125h-1q-28-41-70.5-62.5T456 41q-82 0-126.5 48T285 224q0 73 28.5 135T394 454.5 515 488q48 0 81.5-16T650 424h1l10 53h70L689 250q-11-55-8.5-88t17-47.5T745 100q48 0 82.5 28t53 81T899 330q0 97-43.5 173.5T732 621.5 546 663q-117 0-210.5-54.5T188.5 457 135 247q0-111 46-198T312-85.5 509-133q60 0 120.5 10T746-93l11-58q-60-19-123.5-29T506-190q-128 0-229 55T121 18.5 66 241q0 131 63.5 242T304 657t247 63q121 0 216-50T914.5 531.5 967 333Z"/>
<glyph unicode="&#xa9;" glyph-name="copyright" horiz-adv-x="879" d="M625 242q-26-55-74-85.5T443 126 337.5 152.5t-69.5 75T244 340q0 65 24 114.5t69.5 76T443 557t106-27 71-78l-53-32q-18 38-51.5 58.5T441 499q-39 0-67.5-18.5t-44-54T314 342q0-46 16-82.5t45.5-56T444 184q45 0 75.5 20.5T570 269l55-27Zm121 99q0 92-38 166T600.5 621.5 441 662q-92 0-162-40T171 508 133 341t38-166.5T278.5 60 439 19 600 59.5t108 114T746 341Zm68 3q0-109-48-196.5T632 10.5 438-39Q329-39 243.5 9.5T111.5 144 65 338t48 196T247.5 671.5 442 721q109 0 194-48.5t131.5-135T814 344Z"/>
<glyph unicode="&#xae;" glyph-name="registered" horiz-adv-x="709" d="M297 543q22-1 63-1 35 0 50 11t15 35q0 17-6.5 25.5t-20 12.5T362 630H297V543ZM426 389L354 497H297V389H244V675q67 0 124 0 38 0 63-10t37.5-29T481 591q0-32-19-54.5T409 504l82-115H426ZM575 527q0 63-28 115.5T468 725 354 755q-62 0-113-30t-79-82.5T134 527q0-65 29-117.5T242.5 328 354 299q63 0 114 30t79 82.5T575 527Zm57 1q0-76-36.5-140.5T495 286.5 353 250q-77 0-140 35.5t-99.5 99T77 526q0 76 36.5 140.5T214 767.5 356 804t141.5-36.5 99-99.5T632 528Z"/>
<glyph unicode="&#x2122;" glyph-name="trademark" horiz-adv-x="895" d="M399 682h89l91-217q6-14 12.5-33.5T605 389h1q6 21 12.5 40.5T632 465l93 217h89V314H756V443q0 66 0 111.5t2 79.5h-1q-4-18-11-36.5T730 559L625 314H582L478 559q-9 20-15.5 38T451 634h-2q2-34 2.5-79.5T452 443V314H399V682ZM153 631H28v51H334V631H212V314H153V631Z"/>
<glyph unicode="&#xb0;" glyph-name="degree" horiz-adv-x="413" d="M357 602q0-41-18.5-74T285 476t-80-19q-42 0-76 17.5T75.5 525 56 600q0 40 18.5 73t53 52T207 744q44 0 78.5-18.5t53-51T357 602Zm-65-1q0 39-23.5 63.5T206 689q-40 0-62.5-24.5T121 601q0-40 23-64.5T206 512q40 0 63 24.5T292 601Z"/>
<glyph unicode="&#xa4;" glyph-name="currency" horiz-adv-x="654" d="M454 322q0 66-34 105t-93 39q-61 0-94.5-39.5T199 322q0-66 34-105.5T327 177t93.5 40T454 322Zm69 3q0-71-33-121l102-98L545 59 447 161q-51-39-122-39-73 0-122 37L108 59 61 106l102 95q-33 47-33 118t34 121L61 539l47 47 98-103q53 38 123 38 71 0 120-36l96 101 46-47L490 443q33-48 33-118Z"/>
<glyph unicode="&#x20ac;" glyph-name="Euro" horiz-adv-x="720" d="M440 236H210q20-90 74.5-138T420 50q57 0 101.5 23.5T602 147l50-40Q606 45 548.5 15.5T418-14Q306-14 230.5 52T132 236H34v57h90q-2 30-2 47 0 34 2 50H34v57h98q25 117 102.5 183T421 696q70 0 126.5-28T647 585l-56-45q-33 46-76 69.5T420 633q-80 0-134.5-48.5T211 447H440V390H202q-2-16-2-49 0-18 2-48H440V236Z"/>
<glyph unicode="$" glyph-name="dollar" horiz-adv-x="664" d="M294-101V13q-66 9-120 38.5T75 133l47 52q44-53 101-82T343 74q69 0 111 32t42 84q0 30-14.5 52.5t-46 38-123 38T180 365t-60.5 59.5T100 508q0 72 53 117.5T294 676V788h67V674q58-9 100-30t84-61l-44-56q-41 44-88 65T313 613q-64 0-100.5-27T176 512q0-30 14.5-51.5t45.5-37T359 386t133.5-46.5 61-60.5T573 193q0-76-60-126.5T361 11V-101H294Z"/>
<glyph unicode="&#xa2;" glyph-name="cent" horiz-adv-x="566" d="M326 692V579q53-8 93.5-37T488 461l-63-34q-26 49-59 72t-78 23q-65 0-103-48T147 341q0-82 39.5-131T294 161q53 0 86 23t56 75l58-29q-23-55-64.5-86T326 103V-10H261V102q-88 10-138.5 73.5T72 339q0 102 51 166.5T261 580V692h65Z"/>
<glyph unicode="&#xa3;" glyph-name="sterling" horiz-adv-x="650" d="M576 0H80V55q64 47 89 82t25 79q0 35-12 77H71v59h94q-17 52-23.5 86.5T135 501q0 56 26.5 100.5T236 671t108 25q77 0 130.5-37T559 548l-65-34q-22 59-60 88t-92 29q-40 0-69.5-16t-45-45T212 503q0-42 15-91.5T245 352H430V293H261q10-45 10-73 0-45-21.5-83.5T187 68V66q142 2 226 2H576V0Z"/>
<glyph unicode="&#xa5;" glyph-name="yen" horiz-adv-x="650" d="M289 0V91H121v57H289v89H121v57H289v38L26 682h95L232 527q60-81 97-130 36 49 95 130L533 682h91L361 332V294H529V237H361V148H529V91H361V0H289Z"/>
<glyph unicode="&#x20b4;" glyph-name="uni20B4" horiz-adv-x="650" d="M589 455V398H469q-33-30-91-61.5T304 296H589V239H232q-16-19-23.5-40T201 154q0-48 36-76.5T334 49q55 0 98 22t80 70l44-50Q513 39 455.5 12.5T328-14q-91 0-148 46.5T123 153q0 24 5.5 45.5T145 239H61v57H194q31 26 90 58t79 44H61v57H429q13 17 19.5 36.5T455 532q0 46-34.5 73.5T329 633q-46 0-87-20t-72-58l-43 52q37 42 92 65.5T334 696q89 0 143.5-45T532 534q0-22-4.5-41.5T514 455h75Z"/>
<glyph unicode="&#x20b8;" glyph-name="uni20B8" horiz-adv-x="650" d="M602 456H362V0H287V456H48v64H602V456Zm0 226V617H48v65H602Z"/>
<glyph unicode="&#xe3f;" glyph-name="uni0E3F" horiz-adv-x="650" d="M350 788V681q73-4 118.5-24.5t71-57T565 512q0-58-29-98t-87-62q67-14 102-56.5T586 188q0-91-57.5-137T350 0V-110H283V-1Q152 0 100 0V682q52 0 183 1V788h67ZM175 64q53-1 141-1 103 0 147.5 30T508 186q0 46-20.5 74.5T427 302 308 315H175V64Zm0 313H312q69 0 103 14t53.5 41.5T488 504q0 39-23 66.5t-62.5 38T284 619q-67 0-109-1V377Z"/>
<glyph unicode="&#x20ae;" glyph-name="uni20AE" horiz-adv-x="650" d="M541 477V417L362 373V271l179 44V255L362 211V0H287V193L108 149v60l179 44V355L108 312v60l179 43V616H39v66H611V616H362V433l179 44Z"/>
<glyph unicode="&#x20ba;" glyph-name="uni20BA" horiz-adv-x="650" d="M467 516V458L243 400V303l224 58V303L243 245V61q19-1 29-1 97 0 164.5 16T568 132V58Q508 25 436.5 10.5T267-4q-38 0-99 4V225L57 197v58l111 28v97L57 352v58l111 28V682h75V458l224 58Z"/>
<glyph unicode="&#x20bd;" glyph-name="uni20BD" horiz-adv-x="650" d="M56 123v59h94v98H56v61h94V682q114 1 210 1 78 0 133.5-24t83-69T604 482q0-62-30-108t-87.5-70T353 280H225V182H455V123H225V0H150V123H56ZM525 480q0 46-18.5 77T451 604t-93 16q-88 0-133-1V341H356q56 0 93.5 15.5t56.5 46T525 480Z"/>
<glyph unicode="&#x2116;" glyph-name="uni2116" horiz-adv-x="1150" d="M925 353q-77 0-121.5 47T759 524q0 74 46.5 123T927 696q76 0 120.5-46T1092 527q0-76-46-125T925 353Zm1 55q46 0 72 31.5t26 86.5q0 53-26 84.5T926 642q-47 0-72.5-31.5T828 525t26-85.5T926 408ZM775 237v56h302V237H775ZM559 0L307 393Q193 570 178 597h-2q4-134 4-361V0H110V682h99L456 301q56-86 128-205h1q-1 58-2 166t-1 195V682h70V0H559Z"/>
<glyph unicode="#" glyph-name="numbersign" horiz-adv-x="700" d="M432 233l42 216H268L225 233H432ZM113 0l35 174H34v59H159l42 216H87v59H213l34 174h66L280 508H485l35 174h66L552 508H666V449H541L498 233H613V174H486L453 0H386l34 174H214L180 0H113Z"/>
<glyph unicode="0" glyph-name="zero" horiz-adv-x="678" d="M600 342q0-113-32-193.5T477 27 338-14q-85 0-143 41.5t-87.5 121T78 340q0 113 32 193.5T200.5 655 340 696q85 0 143-41.5t87.5-121T600 342Zm-79-1q0 145-45.5 218T339 632 202.5 559 157 341t45.5-217.5T339 51t136.5 72.5T521 341Z"/>
<glyph unicode="1" glyph-name="one" horiz-adv-x="437" d="M242 564q-31-29-76-42.5T58 508v62q56 0 95.5 13t63 38T250 686h67V0H242V564Z"/>
<glyph unicode="2" glyph-name="two" horiz-adv-x="621" d="M552 0H64V68Q190 172 243.5 217t88 77T388 351t35 47 19.5 44.5T449 493q0 42-18 74t-51.5 48.5T300 632q-43 0-75-17t-50-47-18-67q0-21 3.5-43t9.5-38H94q-7 15-10.5 35T80 498q0 56 28.5 101t80 71T304 696q69 0 119.5-24T501 602t27-105q0-36-6-62.5T503 384t-34.5-50-54-56.5-82-72T163 68V67q84 1 218 1H552V0Z"/>
<glyph unicode="3" glyph-name="three" horiz-adv-x="639" d="M123 209q14-78 62.5-119T313 49q75 0 117.5 37T473 185q0 64-44 98.5T307 318H207v61h68q59 0 93.5 11T426 424q17 16 23.5 36.5T456 510q0 56-41 89.5T308 633q-65 0-105-34.5T148 493L75 509q23 95 81.5 141T311 696q66 0 117.5-23T507 608t27-94q0-58-31-98t-92-62v-1q68-12 105-54.5T553 190q0-58-31-105.5t-85.5-73T311-14Q201-14 134.5 37T49 186l74 23Z"/>
<glyph unicode="4" glyph-name="four" horiz-adv-x="633" d="M384 0V175H43v60L354 682H457V238H580V175H457V0H384ZM119 235q170 3 265 3V439q0 97 3 179h-1L119 235Z"/>
<glyph unicode="5" glyph-name="five" horiz-adv-x="612" d="M507 617H187L169 394h1q21 29 62.5 45.5T322 456q70 0 122.5-29.5t80-82.5T552 224q0-70-31.5-124.5t-87-84T307-14q-86 0-149 38T55 137l66 37q31-62 77.5-93T308 50q49 0 86.5 20.5t58 59.5T473 221t-20 91.5-57 60T312 393q-53 0-93-24t-55-63H97l30 376H507V617Z"/>
<glyph unicode="6" glyph-name="six" horiz-adv-x="636" d="M488 527q-25 55-62.5 80.5T333 633q-93 0-136-79.5T155 304q20 57 71 89.5T347 426q105 0 164-56.5T570 216q0-99-66-164.5T334-14Q212-14 145 73.5T78 324q0 179 67.5 275.5T336 696q79 0 131.5-32.5T555 560l-67-33ZM341 364q-75 0-117.5-42.5T181 209 224 94 335 49q72 0 114 46t42 119q0 71-40 110.5T341 364Z"/>
<glyph unicode="7" glyph-name="seven" horiz-adv-x="585" d="M180 0q9 108 40 209t86.5 202T445 617H56v65H530V624Q446 521 389.5 419T301 213.5 260 0H180Z"/>
<glyph unicode="8" glyph-name="eight" horiz-adv-x="656" d="M489 509q0 57-43.5 90.5T328 633 210.5 599.5 167 509q0-59 43.5-92T328 384q75 0 118 33.5T489 509Zm22-323q0 64-49.5 100.5T327 323q-84 0-133-36.5T145 186 194.5 85.5 328 49 461.5 86 511 186Zm78 3q0-60-33-106.5T463.5 11 326-14 189.5 9.5 99 78.5 67 183q0 62 35 106.5T203 356v1q-54 18-83.5 57.5T90 509q0 53 29.5 96T204 672t126 24q72 0 125.5-23.5t82-66T566 511q0-52-29.5-92T453 359v-2q66-19 101-62.5T589 189Z"/>
<glyph unicode="9" glyph-name="nine" horiz-adv-x="636" d="M140 159q25-58 65-84t99-26q93 0 136 79.5T482 377q-20-56-71.5-88.5T290 256q-106 0-164.5 56.5T67 466q0 99 66 164.5T303 696q122 0 189-87.5T559 358q0-179-67.5-275.5T301-14q-84 0-139 34T72 126l68 33ZM296 318q75 0 117.5 42.5T456 473 413 588 302 633q-72 0-114-46T146 468q0-72 39.5-111T296 318Z"/>
<glyph unicode="&#x2070;" glyph-name="zero.superior" horiz-adv-x="521" d="M442 559q0-107-48.5-168T259 330q-87 0-134 59.5T78 557q0 107 48.5 168T262 786t133.5-59.5T442 559Zm-68-1q0 83-29 127.5T260 730q-55 0-84-44.5T147 558t29-127.5T260 386q56 0 85 44.5T374 558Z"/>
<glyph unicode="&#xb9;" glyph-name="onesuperior" horiz-adv-x="354" d="M189 338V678q-21-17-53-25.5T58 644v58q64 0 98.5 19T198 780h59V338H189Z"/>
<glyph unicode="&#xb2;" glyph-name="twosuperior" horiz-adv-x="502" d="M427 338H84v63q77 48 126.5 82.5t79 61.5T330 596t11 51q0 40-24 62.5T248 732q-44 0-68-20t-24-58q0-27 9-51H97q-10 18-10 50 0 63 44.5 98T252 786q75 0 118-37t43-100q0-34-13.5-64T357 526t-73.5-61T175 396v-1q49 1 123 1H427V338Z"/>
<glyph unicode="&#xb3;" glyph-name="threesuperior" horiz-adv-x="499" d="M136 472q16-88 120-88 47 0 73.5 21T356 463q0 38-25 55.5T254 536H188v52h48q37 0 55.5 5.5T323 611q18 18 18 53 0 32-24 50.5T250 733t-68-19.5T149 654L84 668q12 60 54.5 89T253 786q73 0 116-32t43-86q0-39-17.5-63T341 568v-1q87-21 87-107 0-57-48-93.5T255 330q-80 0-126 31T70 457l66 15Z"/>
<glyph unicode="&#x2074;" glyph-name="four.superior" horiz-adv-x="484" d="M120 488q112 3 164 3V609q0 83 2 115h-2L120 488ZM284 338v96H53v60L251 778H351V491h80V434H351V338H284Z"/>
<glyph unicode="&#x2081;" glyph-name="uni2081" horiz-adv-x="354" d="M189-96V244q-21-17-53-25.5T58 210v58q64 0 98.5 19T198 346h59V-96H189Z"/>
<glyph unicode="&#x2082;" glyph-name="uni2082" horiz-adv-x="502" d="M427-96H84v63q77 48 126.5 82.5t79 61.5T330 162t11 51q0 40-24 62.5T248 298q-44 0-68-20t-24-58q0-27 9-51H97q-10 18-10 50 0 63 44.5 98T252 352q75 0 118-37t43-100q0-34-13.5-64T357 92 283.5 31 175-38v-1q49 1 123 1H427V-96Z"/>
<glyph unicode="&#x2083;" glyph-name="uni2083" horiz-adv-x="499" d="M136 38q16-88 120-88 47 0 73.5 21T356 29q0 38-25 55.5T254 102H188v52h48q37 0 55.5 5.5T323 177q18 18 18 53 0 32-24 50.5T250 299t-68-19.5T149 220L84 234q12 60 54.5 89T253 352q73 0 116-32t43-86q0-39-17.5-63T341 134v-1q87-21 87-107 0-57-48-93.5T255-104q-80 0-126 31T70 23l66 15Z"/>
<glyph unicode="&#x2084;" glyph-name="uni2084" horiz-adv-x="484" d="M120 54q112 3 164 3V175q0 83 2 115h-2L120 54ZM284-96V0H53V60L251 344H351V57h80V0H351V-96H284Z"/>
<glyph unicode="&#x2044;" glyph-name="fraction" horiz-adv-x="391" d="M506 778L-39-96h-75L430 778h76Z"/>
<glyph unicode="&#xbd;" glyph-name="onehalf" horiz-adv-x="980" d="M189 338V678q-21-17-53-25.5T58 644v58q64 0 98.5 19T198 780h59V338H189ZM744 778L199-96H124L668 778h76ZM905-96H562v63q77 48 126.5 82.5t79 61.5T808 162t11 51q0 40-24 62.5T726 298q-44 0-68-20t-24-58q0-27 9-51H575q-10 18-10 50 0 63 44.5 98T730 352q75 0 118-37t43-100q0-34-13.5-64T835 92 761.5 31 653-38v-1q49 1 123 1H905V-96Z"/>
<glyph unicode="&#xbc;" glyph-name="onequarter" horiz-adv-x="936" d="M189 338V678q-21-17-53-25.5T58 644v58q64 0 98.5 19T198 780h59V338H189ZM744 778L199-96H124L668 778h76ZM572 54q112 3 164 3V175q0 83 2 115h-2L572 54ZM736-96V0H505V60L703 344H803V57h80V0H803V-96H736Z"/>
<glyph unicode="&#xbe;" glyph-name="threequarters" horiz-adv-x="1060" d="M136 472q16-88 120-88 47 0 73.5 21T356 463q0 38-25 55.5T254 536H188v52h48q37 0 55.5 5.5T323 611q18 18 18 53 0 32-24 50.5T250 733t-68-19.5T149 654L84 668q12 60 54.5 89T253 786q73 0 116-32t43-86q0-39-17.5-63T341 568v-1q87-21 87-107 0-57-48-93.5T255 330q-80 0-126 31T70 457l66 15ZM869 778L324-96H249L793 778h76ZM697 54q112 3 164 3V175q0 83 2 115h-2L697 54ZM861-96V0H630V60L828 344H928V57h80V0H928V-96H861Z"/>
<glyph unicode="%" glyph-name="percent" horiz-adv-x="1100" d="M442 559q0-107-48.5-168T259 330q-87 0-134 59.5T78 557q0 107 48.5 168T262 786t133.5-59.5T442 559Zm-68-1q0 83-29 127.5T260 730q-55 0-84-44.5T147 558t29-127.5T260 386q56 0 85 44.5T374 558ZM860 778L315-96H240L784 778h76Zm162-653q0-107-48.5-168T839-104q-87 0-134 59.5T658 123q0 107 48.5 168T842 352t133.5-59.5T1022 125Zm-68-1q0 83-29 127.5T840 296q-55 0-84-44.5T727 124 756-3.5 840-48q56 0 85 44.5T954 124Z"/>
<glyph unicode="&#x2030;" glyph-name="perthousand" horiz-adv-x="1582" d="M442 559q0-107-48.5-168T259 330q-87 0-134 59.5T78 557q0 107 48.5 168T262 786t133.5-59.5T442 559Zm-68-1q0 83-29 127.5T260 730q-55 0-84-44.5T147 558t29-127.5T260 386q56 0 85 44.5T374 558ZM860 778L315-96H240L784 778h76Zm162-653q0-107-48.5-168T839-104q-87 0-134 59.5T658 123q0 107 48.5 168T842 352t133.5-59.5T1022 125Zm-68-1q0 83-29 127.5T840 296q-55 0-84-44.5T727 124 756-3.5 840-48q56 0 85 44.5T954 124Zm549 1q0-107-48.5-168T1320-104q-87 0-134 59.5T1139 123q0 107 48.5 168T1323 352t133.5-59.5T1503 125Zm-68-1q0 83-29 127.5T1321 296q-55 0-84-44.5T1208 124 1237-3.5 1321-48q56 0 85 44.5T1435 124Z"/>
<glyph unicode="+" glyph-name="plus" horiz-adv-x="650" d="M291 60V292H63v60H291V582h68V352H587V292H359V60H291Z"/>
<glyph unicode="&#x2212;" glyph-name="minus" horiz-adv-x="650" d="M587 292H63v60H587V292Z"/>
<glyph unicode="=" glyph-name="equal" horiz-adv-x="650" d="M577 385H73v60H577V385Zm0-186H73v60H577V199Z"/>
<glyph unicode="&#x2260;" glyph-name="notequal" horiz-adv-x="650" d="M142 27l86 172H73v60H258l62 126H73v60H350l81 165h72L420 445H577V385H390L327 259H577V199H297L214 27H142Z"/>
<glyph unicode="&#x2248;" glyph-name="approxequal" horiz-adv-x="650" d="M433 160q-30 0-56.5 7.5t-64 30.5T255 227t-41 6q-28 0-55.5-13.5T97 175L60 220q37 37 76.5 56.5T217 296q30 0 56.5-7.5t64-30.5T395 229t41-6q28 0 55 13t62 44l37-44q-39-38-78-57t-79-19Zm0 188q-30 0-56.5 7.5t-64 30.5T255 415t-41 6q-28 0-55-13T97 364L60 408q38 38 77.5 57T217 484q30 0 56.5-7.5t64-30.5T395 417t41-6q28 0 55.5 13.5T553 469l37-45q-39-38-78-57t-79-19Z"/>
<glyph unicode="&lt;" glyph-name="less" horiz-adv-x="650" d="M577 86L73 285v74L577 558V485Q383 408 295.5 375T153 324v-2q55-18 142.5-51.5T577 161V86Z"/>
<glyph unicode="&gt;" glyph-name="greater" horiz-adv-x="650" d="M73 558L577 359V285L73 86v73q193 77 281 110t143 51v2q-55 18-142.5 51.5T73 483v75Z"/>
<glyph unicode="&#xb1;" glyph-name="plusminus" horiz-adv-x="650" d="M577 0H73V60H577V0ZM291 184V404H73v60H291V682h68V464H577V404H359V184H291Z"/>
<glyph unicode="&#x2264;" glyph-name="lessequal" horiz-adv-x="650" d="M577 197L73 396v74L577 669V596Q383 519 295.5 486T153 435v-2q55-18 142.5-51.5T577 272V197ZM577 0H73V60H577V0Z"/>
<glyph unicode="&#x2265;" glyph-name="greaterequal" horiz-adv-x="650" d="M73 669L577 470V396L73 197v73q194 77 281.5 110T497 431v2q-55 18-142.5 51.5T73 594v75ZM577 0H73V60H577V0Z"/>
<glyph unicode="&#xac;" glyph-name="logicalnot" horiz-adv-x="650" d="M497 89V292H63v60H565V89H497Z"/>
<glyph unicode="&#x221e;" glyph-name="infinity" horiz-adv-x="973" d="M253 180q31 0 59.5 13.5T371 234t75 86q-46 60-75 88.5t-58.5 42T253 464q-61 0-97.5-39T119 322t36.5-103T253 180ZM720 464q-31 0-60-13.5t-59-41T527 324q47-62 76-89.5t57.5-41T720 180q61 0 97.5 39T854 322 817.5 425 720 464ZM249 120q-89 0-146.5 55.5T45 319q0 91 59 148t152 57q60 0 113.5-33T489 373q67 85 121 118t114 33q89 0 146.5-55.5T928 325q0-92-59-148.5T717 120q-61 0-114.5 33T484 270q-67-84-121.5-117T249 120Z"/>
<glyph unicode="&#x2202;" glyph-name="partialdiff" horiz-adv-x="562" d="M270-12q-68 0-117.5 31t-76 88T50 236q0 77 27 134.5T154.5 459 272 490q60 0 107.5-30.5T447 382h1q-5 33-10 66.5t-13.5 59T403 555t-31 40q-21 20-50.5 31.5T257 638q-68 0-134-23v64q59 19 137 19 84 0 140.5-39t84-119T512 336q0-114-27-191.5t-81-117T270-12Zm3 60q45 0 80.5 23.5t55 67.5T428 240 409 340.5 355 407t-79 23q-46 0-80.5-22.5t-52.5-66T125 238q0-55 18-99t52-67.5T273 48Z"/>
<glyph unicode="&#x222b;" glyph-name="integral" horiz-adv-x="338" d="M82-217q-23 0-47 5T-6-198l9 61q16-8 36-13.5T75-156q30 0 43.5 18.5T132-82V651q0 67 31.5 101T255 786q22 0 45.5-4.5T344 768l-9-62q-19 8-38 13.5T263 725q-30 0-43.5-18T206 651V-82q0-67-31.5-101T82-217Z"/>
<glyph unicode="&#x221a;" glyph-name="radical" horiz-adv-x="702" d="M264-96L117 284H13v60H174l64-170q34-87 46-123.5T303-12h2q7 29 25.5 80.5T398 253L593 778h81L337-96H264Z"/>
<glyph unicode="&#x220f;" glyph-name="product" horiz-adv-x="803" d="M587-207V713H217V-207H142V713H11v67H792V713H662V-207H587Z"/>
<glyph unicode="&#x2211;" glyph-name="summation" horiz-adv-x="654" d="M40-142L347 298 56 717v63H600V714q-97 0-241 1.5T150 719L438 304 126-144q63 2 212 3.5T615-139v-67H40v64Z"/>
<glyph unicode="&#x25ca;" glyph-name="lozenge" horiz-adv-x="648" d="M326 63q10 21 40.5 70.5T498 340Q400 492 367 544.5T324 619h-2q-10-21-41-70.5T150 342q98-152 131-204.5T324 63h2ZM286 0L68 341 285 682h77L580 341 363 0H286Z"/>
<glyph unicode="&#x2113;" glyph-name="afii61289" horiz-adv-x="452" d="M255-12q-64 0-101 41T102 157L52 131 23 185l71 38q-4 52-4 129 0 129 16 209t49.5 117.5T246 716q42 0 69.5-22t41-65.5T370 522q0-109-50-191T168 193q8-76 30.5-109.5T262 50q21 0 42.5 9.5T346 88l30-48Q349 15 318 1.5T255-12h0Zm42 531q0 72-14 104.5T239 656q-29 0-45-32.5T170 524t-8-172q0-65 1-93 65 38 99.5 104.5T297 519Z"/>
<glyph unicode="&#x212e;" glyph-name="estimated" horiz-adv-x="930" d="M466-14q-89 0-163 25T176 82 94.5 193.5 66 340 95.5 486.5t83 112 127 72T467 696t161-25 125.5-70.5T835 490t29-145q0-4 0-8.5t-1-8.5H223V154q0-24 6.5-35.5T252 95q36-27 90.5-43.5T469 35q86 0 162 27t128 79h76q-29-37-67.5-65.5T681.5 27 579.5-3.5 466-14ZM706 373V537q0 20-5 29.5T685 584q-44 33-99 48.5T465 648q-65 0-121.5-15.5T244 583q-10-8-15.5-19T223 531V373H706Z"/>
<glyph unicode="&#xf8ff;" glyph-name="uniF8FF" horiz-adv-x="821" d="M524 304H372v76H524v76H372v76H600V152H524V304ZM220 532h76V228H448V152H220V532ZM68 684H752V0H68V684ZM144 76H676V608H144V76Z"/>
</font></defs></svg>
